timestamp,current_now,current_avg,voltage_now,voltage_avg,temperature,health,status
1566595872,269,272,4336000,4336000,269,Good,Full
1566595873,269,272,4336000,4336000,269,Good,Full
1566595874,269,272,4336000,4336000,269,Good,Full
1566595874,270,278,4334000,4334000,269,Good,Full
1566595875,270,278,4334000,4334000,269,Good,Full
1566595876,270,278,4334000,4334000,269,Good,Full
1566595877,270,278,4334000,4334000,269,Good,Full
1566595878,270,278,4334000,4334000,270,Good,Full
1566595879,270,278,4334000,4334000,269,Good,Full
1566595880,270,278,4334000,4334000,269,Good,Full
1566595880,270,278,4334000,4334000,270,Good,Full
1566595881,270,278,4334000,4334000,270,Good,Full
1566595882,270,278,4334000,4334000,269,Good,Full
1566595883,270,278,4334000,4334000,270,Good,Full
1566595884,270,278,4334000,4334000,270,Good,Full
1566595885,365,298,4327000,4326000,270,Good,Full
1566595886,365,298,4327000,4326000,270,Good,Full
1566595886,365,298,4327000,4326000,270,Good,Full
1566595887,365,298,4327000,4326000,270,Good,Full
1566595888,365,298,4327000,4326000,270,Good,Full
1566595889,365,298,4327000,4326000,270,Good,Full
1566595890,365,298,4327000,4326000,270,Good,Full
1566595891,365,298,4327000,4326000,270,Good,Full
1566595892,365,298,4327000,4326000,270,Good,Full
1566595892,365,298,4327000,4326000,270,Good,Full
1566595893,365,298,4327000,4326000,270,Good,Full
1566595894,365,298,4327000,4326000,270,Good,Full
1566595895,365,298,4331000,4330000,270,Good,Full
1566595896,202,262,4331000,4330000,270,Good,Full
1566595897,202,262,4331000,4330000,270,Good,Full
1566595897,202,262,4331000,4330000,270,Good,Full
1566595898,202,262,4331000,4330000,270,Good,Full
1566595899,202,262,4331000,4330000,270,Good,Full
1566595900,202,262,4331000,4330000,270,Good,Full
1566595901,202,262,4331000,4330000,270,Good,Full
1566595902,202,262,4331000,4330000,270,Good,Full
1566595903,202,262,4331000,4330000,270,Good,Full
1566595903,202,262,4331000,4330000,270,Good,Full
1566595904,202,262,4331000,4330000,270,Good,Full
1566595905,202,285,4342000,4342000,270,Good,Full
1566595906,340,285,4342000,4342000,270,Good,Full
1566595907,-217,199,4342000,4342000,270,Good,Discharging
1566595908,-217,199,4342000,4342000,270,Good,Discharging
1566595909,-217,199,4342000,4342000,269,Good,Discharging
1566595910,-217,199,4342000,4342000,269,Good,Discharging
1566595911,-217,199,4342000,4342000,269,Good,Discharging
1566595911,-217,199,4342000,4342000,269,Good,Discharging
1566595912,-217,199,4342000,4342000,269,Good,Discharging
1566595913,-217,199,4342000,4342000,269,Good,Discharging
1566595914,-217,199,4342000,4342000,269,Good,Discharging
1566595915,-217,199,4342000,4342000,269,Good,Discharging
1566595916,-217,199,4342000,4342000,269,Good,Discharging
1566595917,-217,199,4342000,4342000,269,Good,Discharging
1566595918,-217,199,4342000,4342000,269,Good,Discharging
1566595919,-217,199,4342000,4342000,269,Good,Discharging
1566595919,-217,199,4342000,4342000,270,Good,Discharging
1566595920,-217,199,4342000,4342000,270,Good,Discharging
1566595921,-217,199,4342000,4342000,270,Good,Discharging
1566595922,-217,199,4342000,4342000,270,Good,Discharging
1566595923,-217,199,4342000,4342000,270,Good,Discharging
1566595924,-217,199,4342000,4342000,270,Good,Discharging
1566595925,-217,199,4342000,4342000,270,Good,Discharging
1566595926,-217,199,4342000,4342000,270,Good,Discharging
1566595926,-217,199,4342000,4342000,270,Good,Discharging
1566595927,-217,199,4342000,4342000,271,Good,Discharging
1566595928,-217,199,4342000,4342000,271,Good,Discharging
1566595929,-217,199,4342000,4342000,271,Good,Discharging
1566595930,-217,199,4342000,4342000,271,Good,Discharging
1566595931,-217,199,4342000,4342000,271,Good,Discharging
1566595932,-217,199,4342000,4342000,271,Good,Discharging
1566595932,-217,199,4342000,4342000,271,Good,Discharging
1566595933,-217,199,4342000,4342000,271,Good,Discharging
1566595934,-217,199,4342000,4342000,271,Good,Discharging
1566595935,-217,199,4342000,4342000,271,Good,Discharging
1566595936,-217,199,4342000,4342000,271,Good,Discharging
1566595937,-217,199,4342000,4342000,272,Good,Discharging
1566595937,-309,-244,4246000,4246000,271,Good,Discharging
1566595938,-309,-244,4246000,4246000,271,Good,Discharging
1566595939,-309,-244,4246000,4246000,271,Good,Discharging
1566595940,-309,-244,4246000,4246000,272,Good,Discharging
1566595941,-309,-244,4246000,4246000,272,Good,Discharging
1566595942,-309,-244,4246000,4246000,272,Good,Discharging
1566595943,-309,-244,4246000,4246000,272,Good,Discharging
1566595943,-309,-244,4246000,4246000,272,Good,Discharging
1566595944,-309,-244,4246000,4246000,272,Good,Discharging
1566595945,-309,-244,4246000,4246000,271,Good,Discharging
1566595946,-309,-244,4246000,4246000,272,Good,Discharging
1566595947,-309,-244,4246000,4246000,272,Good,Discharging
1566595948,-309,-244,4246000,4246000,272,Good,Discharging
1566595949,-309,-244,4246000,4246000,272,Good,Discharging
1566595949,-309,-244,4246000,4246000,272,Good,Discharging
1566595950,-309,-244,4246000,4246000,272,Good,Discharging
1566595951,-309,-244,4246000,4246000,272,Good,Discharging
1566595952,-309,-244,4246000,4246000,272,Good,Discharging
1566595953,-309,-244,4246000,4246000,272,Good,Discharging
1566595954,-309,-244,4246000,4246000,272,Good,Discharging
1566595955,-309,-244,4246000,4246000,272,Good,Discharging
1566595955,-309,-244,4246000,4246000,272,Good,Discharging
1566595956,-309,-244,4246000,4246000,272,Good,Discharging
1566595957,-309,-244,4246000,4246000,272,Good,Discharging
1566595958,-309,-244,4246000,4246000,272,Good,Discharging
1566595959,-309,-244,4246000,4246000,272,Good,Discharging
1566595960,-309,-244,4246000,4246000,272,Good,Discharging
1566595961,-309,-244,4246000,4246000,272,Good,Discharging
1566595962,-309,-244,4246000,4246000,272,Good,Discharging
1566595962,-309,-244,4246000,4246000,272,Good,Discharging
1566595963,-309,-244,4246000,4246000,272,Good,Discharging
1566595964,-309,-244,4246000,4246000,272,Good,Discharging
1566595965,-309,-244,4246000,4246000,272,Good,Discharging
1566595966,-309,-244,4246000,4246000,272,Good,Discharging
1566595967,-309,-244,4246000,4246000,272,Good,Discharging
1566595968,-282,-295,4238000,4238000,272,Good,Discharging
1566595968,-282,-295,4238000,4238000,272,Good,Discharging
1566595969,-282,-295,4238000,4238000,272,Good,Discharging
1566595970,-282,-295,4238000,4238000,272,Good,Discharging
1566595971,-282,-295,4238000,4238000,272,Good,Discharging
1566595972,-282,-295,4238000,4238000,272,Good,Discharging
1566595973,-282,-295,4238000,4238000,272,Good,Discharging
1566595974,-282,-295,4238000,4238000,272,Good,Discharging
1566595974,-282,-295,4238000,4238000,272,Good,Discharging
1566595975,-282,-295,4238000,4238000,272,Good,Discharging
1566595976,-282,-295,4238000,4238000,272,Good,Discharging
1566595977,-282,-295,4238000,4238000,272,Good,Discharging
1566595978,-282,-295,4238000,4238000,272,Good,Discharging
1566595979,-282,-295,4238000,4238000,272,Good,Discharging
1566595980,-282,-295,4238000,4238000,272,Good,Discharging
1566595980,-282,-295,4238000,4238000,272,Good,Discharging
1566595981,-282,-295,4238000,4238000,272,Good,Discharging
1566595982,-282,-295,4238000,4238000,272,Good,Discharging
1566595983,-282,-295,4238000,4238000,272,Good,Discharging
1566595984,-282,-295,4238000,4238000,272,Good,Discharging
1566595985,-282,-295,4238000,4238000,272,Good,Discharging
1566595986,-282,-295,4238000,4238000,272,Good,Discharging
1566595986,-282,-295,4238000,4238000,272,Good,Discharging
1566595987,-282,-295,4238000,4238000,272,Good,Discharging
1566595988,-282,-295,4238000,4238000,272,Good,Discharging
1566595989,-282,-295,4238000,4238000,272,Good,Discharging
1566595990,-282,-295,4238000,4238000,272,Good,Discharging
1566595991,-282,-295,4238000,4238000,272,Good,Discharging
1566595992,-282,-295,4238000,4238000,272,Good,Discharging
1566595992,-282,-295,4238000,4238000,272,Good,Discharging
1566595993,-282,-295,4238000,4238000,272,Good,Discharging
1566595994,-282,-295,4238000,4238000,272,Good,Discharging
1566595995,-282,-295,4238000,4238000,272,Good,Discharging
1566595996,-282,-295,4238000,4238000,272,Good,Discharging
1566595997,-282,-295,4238000,4238000,272,Good,Discharging
1566595998,-229,-291,4238000,4238000,272,Good,Discharging
1566595998,-229,-291,4238000,4238000,272,Good,Discharging
1566595999,-229,-291,4238000,4238000,272,Good,Discharging
1566596000,-229,-291,4238000,4238000,272,Good,Discharging
1566596001,-229,-291,4238000,4238000,272,Good,Discharging
1566596002,-229,-291,4238000,4238000,272,Good,Discharging
1566596003,-229,-291,4238000,4238000,272,Good,Discharging
1566596004,-229,-291,4238000,4238000,272,Good,Discharging
1566596004,-229,-291,4238000,4238000,272,Good,Discharging
1566596005,-229,-291,4238000,4238000,272,Good,Discharging
1566596006,-229,-291,4238000,4238000,272,Good,Discharging
1566596007,-229,-291,4238000,4238000,272,Good,Discharging
1566596008,-229,-291,4238000,4238000,272,Good,Discharging
1566596009,-229,-291,4238000,4238000,272,Good,Discharging
1566596010,-229,-291,4238000,4238000,272,Good,Discharging
1566596010,-229,-291,4238000,4238000,272,Good,Discharging
1566596011,-229,-291,4238000,4238000,272,Good,Discharging
1566596012,-229,-291,4238000,4238000,272,Good,Discharging
1566596013,-229,-291,4238000,4238000,272,Good,Discharging
1566596014,-229,-291,4238000,4238000,272,Good,Discharging
1566596015,-229,-291,4238000,4238000,272,Good,Discharging
1566596016,-229,-291,4238000,4238000,272,Good,Discharging
1566596017,-229,-291,4238000,4238000,272,Good,Discharging
1566596017,-229,-291,4238000,4238000,272,Good,Discharging
1566596018,-229,-291,4238000,4238000,272,Good,Discharging
1566596019,-229,-291,4238000,4238000,272,Good,Discharging
1566596020,-229,-291,4238000,4238000,272,Good,Discharging
1566596021,-229,-291,4238000,4238000,272,Good,Discharging
1566596022,-229,-291,4238000,4238000,272,Good,Discharging
1566596023,-229,-291,4238000,4238000,272,Good,Discharging
1566596023,-229,-291,4238000,4238000,272,Good,Discharging
1566596024,-229,-291,4238000,4238000,272,Good,Discharging
1566596025,-229,-291,4238000,4238000,272,Good,Discharging
1566596026,-229,-291,4238000,4238000,272,Good,Discharging
1566596027,-229,-291,4238000,4238000,272,Good,Discharging
1566596028,-417,-285,4239000,4238000,272,Good,Discharging
1566596029,-417,-285,4239000,4238000,272,Good,Discharging
1566596030,-417,-285,4239000,4238000,272,Good,Discharging
1566596030,-417,-285,4239000,4238000,272,Good,Discharging
1566596031,-417,-285,4239000,4238000,272,Good,Discharging
1566596032,-417,-285,4239000,4238000,272,Good,Discharging
1566596033,-417,-285,4239000,4238000,272,Good,Discharging
1566596034,-417,-285,4239000,4238000,272,Good,Discharging
1566596035,-417,-285,4239000,4238000,272,Good,Discharging
1566596036,-417,-285,4239000,4238000,272,Good,Discharging
1566596036,-417,-285,4239000,4238000,272,Good,Discharging
1566596037,-417,-285,4239000,4238000,272,Good,Discharging
1566596038,-417,-285,4239000,4238000,272,Good,Discharging
1566596039,-417,-285,4239000,4238000,272,Good,Discharging
1566596040,-417,-285,4239000,4238000,272,Good,Discharging
1566596041,-417,-285,4239000,4238000,272,Good,Discharging
1566596042,-417,-285,4239000,4238000,272,Good,Discharging
1566596042,-417,-285,4239000,4238000,272,Good,Discharging
1566596043,-417,-285,4239000,4238000,272,Good,Discharging
1566596044,-417,-285,4239000,4238000,272,Good,Discharging
1566596045,-417,-285,4239000,4238000,272,Good,Discharging
1566596046,-417,-285,4239000,4238000,272,Good,Discharging
1566596047,-417,-285,4239000,4238000,272,Good,Discharging
1566596048,-417,-285,4239000,4238000,272,Good,Discharging
1566596048,-417,-285,4239000,4238000,272,Good,Discharging
1566596049,-417,-285,4239000,4238000,272,Good,Discharging
1566596050,-417,-285,4239000,4238000,272,Good,Discharging
1566596051,-417,-285,4239000,4238000,272,Good,Discharging
1566596052,-417,-285,4239000,4238000,272,Good,Discharging
1566596053,-417,-285,4239000,4238000,272,Good,Discharging
1566596054,-417,-285,4239000,4238000,272,Good,Discharging
1566596054,-417,-285,4239000,4238000,272,Good,Discharging
1566596055,-417,-285,4239000,4238000,272,Good,Discharging
1566596056,-417,-285,4239000,4238000,272,Good,Discharging
1566596057,-417,-285,4239000,4238000,273,Good,Discharging
1566596058,-564,-284,4228000,4228000,272,Good,Discharging
1566596059,-564,-284,4228000,4228000,273,Good,Discharging
1566596060,-564,-284,4228000,4228000,273,Good,Discharging
1566596060,-564,-284,4228000,4228000,273,Good,Discharging
1566596061,-564,-284,4228000,4228000,273,Good,Discharging
1566596062,-564,-284,4228000,4228000,273,Good,Discharging
1566596063,-564,-284,4228000,4228000,273,Good,Discharging
1566596064,-564,-284,4228000,4228000,273,Good,Discharging
1566596065,-564,-284,4228000,4228000,273,Good,Discharging
1566596066,-564,-284,4228000,4228000,273,Good,Discharging
1566596067,-564,-284,4228000,4228000,273,Good,Discharging
1566596067,-564,-284,4228000,4228000,273,Good,Discharging
1566596068,-564,-284,4228000,4228000,273,Good,Discharging
1566596069,-564,-284,4228000,4228000,273,Good,Discharging
1566596070,-564,-284,4228000,4228000,273,Good,Discharging
1566596071,-564,-284,4228000,4228000,273,Good,Discharging
1566596072,-564,-284,4228000,4228000,273,Good,Discharging
1566596072,-564,-284,4228000,4228000,273,Good,Discharging
1566596073,-564,-284,4228000,4228000,273,Good,Discharging
1566596074,-564,-284,4228000,4228000,273,Good,Discharging
1566596075,-564,-284,4228000,4228000,273,Good,Discharging
1566596076,-564,-284,4228000,4228000,273,Good,Discharging
1566596077,-564,-284,4228000,4228000,273,Good,Discharging
1566596078,-564,-284,4228000,4228000,273,Good,Discharging
1566596079,-564,-284,4228000,4228000,273,Good,Discharging
1566596079,-564,-284,4228000,4228000,273,Good,Discharging
1566596080,-564,-284,4228000,4228000,273,Good,Discharging
1566596081,-564,-284,4228000,4228000,273,Good,Discharging
1566596082,-564,-284,4228000,4228000,273,Good,Discharging
1566596083,-564,-284,4228000,4228000,273,Good,Discharging
1566596084,-564,-284,4228000,4228000,273,Good,Discharging
1566596085,-564,-284,4228000,4228000,273,Good,Discharging
1566596085,-564,-284,4228000,4228000,273,Good,Discharging
1566596086,-564,-284,4228000,4228000,273,Good,Discharging
1566596087,-564,-284,4228000,4228000,273,Good,Discharging
1566596088,-303,-284,4228000,4228000,273,Good,Discharging
1566596089,-303,-284,4228000,4228000,273,Good,Discharging
1566596090,-303,-284,4228000,4228000,273,Good,Discharging
1566596091,-303,-284,4228000,4228000,273,Good,Discharging
1566596092,-303,-284,4228000,4228000,273,Good,Discharging
1566596092,-303,-284,4228000,4228000,273,Good,Discharging
1566596093,-303,-284,4228000,4228000,273,Good,Discharging
1566596094,-303,-284,4228000,4228000,273,Good,Discharging
1566596095,-303,-284,4228000,4228000,273,Good,Discharging
1566596096,-303,-284,4228000,4228000,273,Good,Discharging
1566596097,-303,-284,4228000,4228000,273,Good,Discharging
1566596098,-303,-284,4228000,4228000,273,Good,Discharging
1566596098,-303,-284,4228000,4228000,273,Good,Discharging
1566596099,-303,-284,4228000,4228000,273,Good,Discharging
1566596100,-303,-284,4228000,4228000,273,Good,Discharging
1566596101,-303,-284,4228000,4228000,273,Good,Discharging
1566596102,-303,-284,4228000,4228000,273,Good,Discharging
1566596103,-303,-284,4228000,4228000,273,Good,Discharging
1566596104,-303,-284,4228000,4228000,273,Good,Discharging
1566596104,-303,-284,4228000,4228000,273,Good,Discharging
1566596105,-303,-284,4228000,4228000,273,Good,Discharging
1566596106,-303,-284,4228000,4228000,273,Good,Discharging
1566596107,-303,-284,4228000,4228000,273,Good,Discharging
1566596108,-303,-284,4228000,4228000,274,Good,Discharging
1566596109,-303,-284,4228000,4228000,273,Good,Discharging
1566596110,-303,-284,4228000,4228000,274,Good,Discharging
1566596110,-303,-284,4228000,4228000,274,Good,Discharging
1566596111,-303,-284,4228000,4228000,273,Good,Discharging
1566596112,-303,-284,4228000,4228000,274,Good,Discharging
1566596113,-303,-284,4228000,4228000,274,Good,Discharging
1566596114,-303,-284,4228000,4228000,273,Good,Discharging
1566596115,-303,-284,4228000,4228000,273,Good,Discharging
1566596116,-303,-284,4228000,4228000,274,Good,Discharging
1566596117,-303,-284,4228000,4228000,274,Good,Discharging
1566596117,-303,-284,4228000,4228000,274,Good,Discharging
1566596118,-365,-283,4228000,4228000,274,Good,Discharging
1566596119,-365,-283,4228000,4228000,274,Good,Discharging
1566596120,-365,-283,4228000,4228000,274,Good,Discharging
1566596121,-365,-283,4228000,4228000,274,Good,Discharging
1566596122,-365,-283,4228000,4228000,274,Good,Discharging
1566596123,-365,-283,4228000,4228000,274,Good,Discharging
1566596123,-365,-283,4228000,4228000,274,Good,Discharging
1566596124,-365,-283,4228000,4228000,274,Good,Discharging
1566596125,-365,-283,4228000,4228000,274,Good,Discharging
1566596126,-365,-283,4228000,4228000,274,Good,Discharging
1566596127,-365,-283,4228000,4228000,274,Good,Discharging
1566596128,-365,-283,4228000,4228000,274,Good,Discharging
1566596129,-365,-283,4228000,4228000,274,Good,Discharging
1566596130,-365,-283,4228000,4228000,274,Good,Discharging
1566596131,-365,-283,4228000,4228000,274,Good,Discharging
1566596131,-365,-283,4228000,4228000,274,Good,Discharging
1566596132,-365,-283,4228000,4228000,274,Good,Discharging
1566596133,-365,-283,4228000,4228000,274,Good,Discharging
1566596134,-365,-283,4228000,4228000,274,Good,Discharging
1566596135,-365,-283,4228000,4228000,274,Good,Discharging
1566596136,-365,-283,4228000,4228000,274,Good,Discharging
1566596137,-365,-283,4228000,4228000,274,Good,Discharging
1566596137,-365,-283,4228000,4228000,274,Good,Discharging
1566596138,-365,-283,4228000,4228000,274,Good,Discharging
1566596139,-365,-283,4228000,4228000,274,Good,Discharging
1566596140,-365,-283,4228000,4228000,274,Good,Discharging
1566596141,-365,-283,4228000,4228000,274,Good,Discharging
1566596142,-365,-283,4228000,4228000,274,Good,Discharging
1566596143,-365,-283,4228000,4228000,274,Good,Discharging
1566596143,-365,-283,4228000,4228000,274,Good,Discharging
1566596144,-365,-283,4228000,4228000,274,Good,Discharging
1566596145,-365,-283,4228000,4228000,274,Good,Discharging
1566596146,-365,-283,4228000,4228000,274,Good,Discharging
1566596147,-365,-283,4228000,4228000,274,Good,Discharging
1566596148,-364,-291,4232000,4232000,274,Good,Discharging
1566596149,-364,-291,4232000,4232000,274,Good,Discharging
1566596149,-364,-291,4232000,4232000,274,Good,Discharging
1566596150,-364,-291,4232000,4232000,274,Good,Discharging
1566596151,-364,-291,4232000,4232000,274,Good,Discharging
1566596152,-364,-291,4232000,4232000,274,Good,Discharging
1566596153,-364,-291,4232000,4232000,274,Good,Discharging
1566596154,-364,-291,4232000,4232000,274,Good,Discharging
1566596155,-364,-291,4232000,4232000,274,Good,Discharging
1566596155,-364,-291,4232000,4232000,274,Good,Discharging
1566596156,-364,-291,4232000,4232000,274,Good,Discharging
1566596157,-364,-291,4232000,4232000,274,Good,Discharging
1566596158,-364,-291,4232000,4232000,274,Good,Discharging
1566596159,-364,-291,4232000,4232000,274,Good,Discharging
1566596160,-364,-291,4232000,4232000,274,Good,Discharging
1566596161,-364,-291,4232000,4232000,274,Good,Discharging
1566596162,-364,-291,4232000,4232000,275,Good,Discharging
1566596162,-364,-291,4232000,4232000,274,Good,Discharging
1566596163,-364,-291,4232000,4232000,274,Good,Discharging
1566596164,-364,-291,4232000,4232000,275,Good,Discharging
1566596165,-364,-291,4232000,4232000,275,Good,Discharging
1566596166,-364,-291,4232000,4232000,275,Good,Discharging
1566596167,-364,-291,4232000,4232000,275,Good,Discharging
1566596168,-364,-291,4232000,4232000,275,Good,Discharging
1566596168,-364,-291,4232000,4232000,275,Good,Discharging
1566596169,-364,-291,4232000,4232000,275,Good,Discharging
1566596170,-364,-291,4232000,4232000,275,Good,Discharging
1566596171,-364,-291,4232000,4232000,275,Good,Discharging
1566596172,-364,-291,4232000,4232000,275,Good,Discharging
1566596173,-364,-291,4232000,4232000,275,Good,Discharging
1566596174,-364,-291,4232000,4232000,275,Good,Discharging
1566596175,-364,-291,4232000,4232000,275,Good,Discharging
1566596175,-364,-291,4232000,4232000,275,Good,Discharging
1566596176,-364,-291,4232000,4232000,275,Good,Discharging
1566596177,-364,-291,4232000,4232000,275,Good,Discharging
1566596178,-338,-285,4227000,4226000,275,Good,Discharging
1566596179,-338,-285,4227000,4226000,275,Good,Discharging
1566596180,-338,-285,4227000,4226000,275,Good,Discharging
1566596181,-338,-285,4227000,4226000,275,Good,Discharging
1566596181,-338,-285,4227000,4226000,275,Good,Discharging
1566596182,-338,-285,4227000,4226000,275,Good,Discharging
1566596183,-338,-285,4227000,4226000,275,Good,Discharging
1566596184,-338,-285,4227000,4226000,275,Good,Discharging
1566596185,-338,-285,4227000,4226000,275,Good,Discharging
1566596186,-338,-285,4227000,4226000,275,Good,Discharging
1566596187,-338,-285,4227000,4226000,275,Good,Discharging
1566596187,-338,-285,4227000,4226000,275,Good,Discharging
1566596188,-338,-285,4227000,4226000,275,Good,Discharging
1566596189,-338,-285,4227000,4226000,275,Good,Discharging
1566596190,-338,-285,4227000,4226000,275,Good,Discharging
1566596191,-338,-285,4227000,4226000,275,Good,Discharging
1566596192,-338,-285,4227000,4226000,275,Good,Discharging
1566596193,-338,-285,4227000,4226000,275,Good,Discharging
1566596193,-338,-285,4227000,4226000,275,Good,Discharging
1566596194,-338,-285,4227000,4226000,275,Good,Discharging
1566596195,-338,-285,4227000,4226000,275,Good,Discharging
1566596196,-338,-285,4227000,4226000,276,Good,Discharging
1566596197,-338,-285,4227000,4226000,275,Good,Discharging
1566596198,-338,-285,4227000,4226000,275,Good,Discharging
1566596199,-338,-285,4227000,4226000,275,Good,Discharging
1566596199,-338,-285,4227000,4226000,275,Good,Discharging
1566596200,-338,-285,4227000,4226000,275,Good,Discharging
1566596201,-338,-285,4227000,4226000,276,Good,Discharging
1566596202,-338,-285,4227000,4226000,276,Good,Discharging
1566596203,-338,-285,4227000,4226000,275,Good,Discharging
1566596204,-338,-285,4227000,4226000,276,Good,Discharging
1566596205,-338,-285,4227000,4226000,275,Good,Discharging
1566596205,-338,-285,4227000,4226000,276,Good,Discharging
1566596206,-338,-285,4227000,4226000,276,Good,Discharging
1566596207,-338,-285,4227000,4226000,276,Good,Discharging
1566596208,-338,-282,4225000,4224000,275,Good,Discharging
1566596209,-270,-282,4225000,4224000,276,Good,Discharging
1566596210,-270,-282,4225000,4224000,276,Good,Discharging
1566596211,-270,-282,4225000,4224000,275,Good,Discharging
1566596211,-270,-282,4225000,4224000,276,Good,Discharging
1566596212,-270,-282,4225000,4224000,276,Good,Discharging
1566596213,-270,-282,4225000,4224000,275,Good,Discharging
1566596214,-270,-282,4225000,4224000,276,Good,Discharging
1566596215,-270,-282,4225000,4224000,276,Good,Discharging
1566596216,-270,-282,4225000,4224000,276,Good,Discharging
1566596217,-270,-282,4225000,4224000,276,Good,Discharging
1566596217,-270,-282,4225000,4224000,276,Good,Discharging
1566596218,-270,-282,4225000,4224000,276,Good,Discharging
1566596219,-270,-282,4225000,4224000,276,Good,Discharging
1566596220,-270,-282,4225000,4224000,276,Good,Discharging
1566596221,-270,-282,4225000,4224000,276,Good,Discharging
1566596222,-270,-282,4225000,4224000,276,Good,Discharging
1566596223,-270,-282,4225000,4224000,276,Good,Discharging
1566596223,-270,-282,4225000,4224000,276,Good,Discharging
1566596224,-270,-282,4225000,4224000,276,Good,Discharging
1566596225,-270,-282,4225000,4224000,276,Good,Discharging
1566596226,-270,-282,4225000,4224000,276,Good,Discharging
1566596227,-270,-282,4225000,4224000,276,Good,Discharging
1566596228,-270,-282,4225000,4224000,276,Good,Discharging
1566596229,-270,-282,4225000,4224000,276,Good,Discharging
1566596229,-270,-282,4225000,4224000,276,Good,Discharging
1566596230,-270,-282,4225000,4224000,276,Good,Discharging
1566596231,-270,-282,4225000,4224000,276,Good,Discharging
1566596232,-270,-282,4225000,4224000,276,Good,Discharging
1566596233,-270,-282,4225000,4224000,276,Good,Discharging
1566596234,-270,-282,4225000,4224000,276,Good,Discharging
1566596235,-270,-282,4225000,4224000,276,Good,Discharging
1566596236,-270,-282,4225000,4224000,276,Good,Discharging
1566596236,-270,-282,4225000,4224000,276,Good,Discharging
1566596237,-270,-282,4225000,4224000,276,Good,Discharging
1566596238,-309,-286,4215000,4214000,276,Good,Discharging
1566596239,-309,-286,4215000,4214000,276,Good,Discharging
1566596240,-309,-286,4215000,4214000,276,Good,Discharging
1566596241,-309,-286,4215000,4214000,276,Good,Discharging
1566596242,-309,-286,4215000,4214000,276,Good,Discharging
1566596243,-309,-286,4215000,4214000,276,Good,Discharging
1566596243,-309,-286,4215000,4214000,276,Good,Discharging
1566596244,-309,-286,4215000,4214000,276,Good,Discharging
1566596245,-309,-286,4215000,4214000,276,Good,Discharging
1566596246,-309,-286,4215000,4214000,276,Good,Discharging
1566596247,-309,-286,4215000,4214000,276,Good,Discharging
1566596248,-309,-286,4215000,4214000,276,Good,Discharging
1566596248,-309,-286,4215000,4214000,276,Good,Discharging
1566596249,-309,-286,4215000,4214000,276,Good,Discharging
1566596250,-309,-286,4215000,4214000,276,Good,Discharging
1566596251,-309,-286,4215000,4214000,276,Good,Discharging
1566596252,-309,-286,4215000,4214000,276,Good,Discharging
1566596253,-309,-286,4215000,4214000,276,Good,Discharging
1566596254,-309,-286,4215000,4214000,276,Good,Discharging
1566596254,-309,-286,4215000,4214000,276,Good,Discharging
1566596255,-309,-286,4215000,4214000,276,Good,Discharging
1566596256,-309,-286,4215000,4214000,276,Good,Discharging
1566596257,-309,-286,4215000,4214000,276,Good,Discharging
1566596258,-309,-286,4215000,4214000,276,Good,Discharging
1566596259,-309,-286,4215000,4214000,276,Good,Discharging
1566596260,-309,-286,4215000,4214000,276,Good,Discharging
1566596261,-309,-286,4215000,4214000,276,Good,Discharging
1566596261,-309,-286,4215000,4214000,276,Good,Discharging
1566596262,-309,-286,4215000,4214000,276,Good,Discharging
1566596263,-309,-286,4215000,4214000,276,Good,Discharging
1566596264,-309,-286,4215000,4214000,276,Good,Discharging
1566596265,-309,-286,4215000,4214000,276,Good,Discharging
1566596266,-309,-286,4215000,4214000,276,Good,Discharging
1566596267,-309,-286,4215000,4214000,276,Good,Discharging
1566596267,-309,-286,4215000,4214000,276,Good,Discharging
1566596268,-264,-289,4218000,4218000,276,Good,Discharging
1566596269,-264,-289,4218000,4218000,276,Good,Discharging
1566596270,-264,-289,4218000,4218000,276,Good,Discharging
1566596271,-264,-289,4218000,4218000,276,Good,Discharging
1566596272,-264,-289,4218000,4218000,276,Good,Discharging
1566596273,-264,-289,4218000,4218000,276,Good,Discharging
1566596274,-264,-289,4218000,4218000,276,Good,Discharging
1566596274,-264,-289,4218000,4218000,276,Good,Discharging
1566596275,-264,-289,4218000,4218000,276,Good,Discharging
1566596276,-264,-289,4218000,4218000,276,Good,Discharging
1566596277,-264,-289,4218000,4218000,276,Good,Discharging
1566596278,-264,-289,4218000,4218000,276,Good,Discharging
1566596279,-264,-289,4218000,4218000,276,Good,Discharging
1566596280,-264,-289,4218000,4218000,276,Good,Discharging
1566596280,-264,-289,4218000,4218000,277,Good,Discharging
1566596281,-264,-289,4218000,4218000,276,Good,Discharging
1566596282,-264,-289,4218000,4218000,276,Good,Discharging
1566596283,-264,-289,4218000,4218000,277,Good,Discharging
1566596284,-264,-289,4218000,4218000,277,Good,Discharging
1566596285,-264,-289,4218000,4218000,277,Good,Discharging
1566596286,-264,-289,4218000,4218000,277,Good,Discharging
1566596286,-264,-289,4218000,4218000,277,Good,Discharging
1566596287,-264,-289,4218000,4218000,277,Good,Discharging
1566596288,-264,-289,4218000,4218000,276,Good,Discharging
1566596289,-264,-289,4218000,4218000,277,Good,Discharging
1566596290,-264,-289,4218000,4218000,277,Good,Discharging
1566596291,-264,-289,4218000,4218000,277,Good,Discharging
1566596292,-264,-289,4218000,4218000,277,Good,Discharging
1566596292,-264,-289,4218000,4218000,277,Good,Discharging
1566596293,-264,-289,4218000,4218000,277,Good,Discharging
1566596294,-264,-289,4218000,4218000,277,Good,Discharging
1566596295,-264,-289,4218000,4218000,277,Good,Discharging
1566596296,-264,-289,4218000,4218000,277,Good,Discharging
1566596297,-264,-289,4218000,4218000,277,Good,Discharging
1566596298,-264,-289,4218000,4218000,277,Good,Discharging
1566596298,-293,-290,4210000,4210000,277,Good,Discharging
1566596299,-293,-290,4210000,4210000,277,Good,Discharging
1566596300,-293,-290,4210000,4210000,277,Good,Discharging
1566596301,-293,-290,4210000,4210000,277,Good,Discharging
1566596302,-293,-290,4210000,4210000,277,Good,Discharging
1566596303,-293,-290,4210000,4210000,277,Good,Discharging
1566596304,-293,-290,4210000,4210000,277,Good,Discharging
1566596304,-293,-290,4210000,4210000,277,Good,Discharging
1566596305,-293,-290,4210000,4210000,277,Good,Discharging
1566596306,-293,-290,4210000,4210000,277,Good,Discharging
1566596307,-293,-290,4210000,4210000,277,Good,Discharging
1566596308,-293,-290,4210000,4210000,277,Good,Discharging
1566596309,-293,-290,4210000,4210000,277,Good,Discharging
1566596310,-293,-290,4210000,4210000,277,Good,Discharging
1566596311,-293,-290,4210000,4210000,277,Good,Discharging
1566596311,-293,-290,4210000,4210000,277,Good,Discharging
1566596312,-293,-290,4210000,4210000,277,Good,Discharging
1566596313,-293,-290,4210000,4210000,277,Good,Discharging
1566596314,-293,-290,4210000,4210000,277,Good,Discharging
1566596315,-293,-290,4210000,4210000,277,Good,Discharging
1566596316,-293,-290,4210000,4210000,277,Good,Discharging
1566596317,-293,-290,4210000,4210000,277,Good,Discharging
1566596317,-293,-290,4210000,4210000,277,Good,Discharging
1566596318,-293,-290,4210000,4210000,277,Good,Discharging
1566596319,-293,-290,4210000,4210000,277,Good,Discharging
1566596320,-293,-290,4210000,4210000,277,Good,Discharging
1566596321,-293,-290,4210000,4210000,277,Good,Discharging
1566596322,-293,-290,4210000,4210000,277,Good,Discharging
1566596322,-293,-290,4210000,4210000,277,Good,Discharging
1566596323,-293,-290,4210000,4210000,277,Good,Discharging
1566596324,-293,-290,4210000,4210000,277,Good,Discharging
1566596325,-293,-290,4210000,4210000,277,Good,Discharging
1566596326,-293,-290,4210000,4210000,277,Good,Discharging
1566596327,-293,-290,4210000,4210000,277,Good,Discharging
1566596328,-293,-290,4210000,4210000,277,Good,Discharging
1566596329,-278,-291,4214000,4214000,277,Good,Discharging
1566596329,-278,-291,4214000,4214000,277,Good,Discharging
1566596330,-278,-291,4214000,4214000,277,Good,Discharging
1566596331,-278,-291,4214000,4214000,277,Good,Discharging
1566596332,-278,-291,4214000,4214000,277,Good,Discharging
1566596333,-278,-291,4214000,4214000,277,Good,Discharging
1566596334,-278,-291,4214000,4214000,277,Good,Discharging
1566596335,-278,-291,4214000,4214000,277,Good,Discharging
1566596335,-278,-291,4214000,4214000,277,Good,Discharging
1566596336,-278,-291,4214000,4214000,277,Good,Discharging
1566596337,-278,-291,4214000,4214000,277,Good,Discharging
1566596338,-278,-291,4214000,4214000,277,Good,Discharging
1566596339,-278,-291,4214000,4214000,277,Good,Discharging
1566596340,-278,-291,4214000,4214000,277,Good,Discharging
1566596341,-278,-291,4214000,4214000,277,Good,Discharging
1566596342,-278,-291,4214000,4214000,278,Good,Discharging
1566596343,-278,-291,4214000,4214000,277,Good,Discharging
1566596343,-278,-291,4214000,4214000,277,Good,Discharging
1566596344,-278,-291,4214000,4214000,277,Good,Discharging
1566596345,-278,-291,4214000,4214000,278,Good,Discharging
1566596346,-278,-291,4214000,4214000,278,Good,Discharging
1566596347,-278,-291,4214000,4214000,277,Good,Discharging
1566596348,-278,-291,4214000,4214000,277,Good,Discharging
1566596349,-278,-291,4214000,4214000,278,Good,Discharging
1566596349,-278,-291,4214000,4214000,278,Good,Discharging
1566596350,-278,-291,4214000,4214000,277,Good,Discharging
1566596351,-278,-291,4214000,4214000,277,Good,Discharging
1566596352,-278,-291,4214000,4214000,278,Good,Discharging
1566596353,-278,-291,4214000,4214000,277,Good,Discharging
1566596354,-278,-291,4214000,4214000,278,Good,Discharging
1566596355,-278,-291,4214000,4214000,278,Good,Discharging
1566596355,-278,-291,4214000,4214000,278,Good,Discharging
1566596356,-278,-291,4214000,4214000,278,Good,Discharging
1566596357,-278,-291,4214000,4214000,278,Good,Discharging
1566596358,-278,-291,4214000,4214000,278,Good,Discharging
1566596359,-154,-284,4221000,4220000,278,Good,Discharging
1566596360,-154,-284,4221000,4220000,278,Good,Discharging
1566596360,-154,-284,4221000,4220000,278,Good,Discharging
1566596361,-154,-284,4221000,4220000,278,Good,Discharging
1566596362,-154,-284,4221000,4220000,278,Good,Discharging
1566596363,-154,-284,4221000,4220000,278,Good,Discharging
1566596364,-154,-284,4221000,4220000,278,Good,Discharging
1566596364,-154,-284,4221000,4220000,278,Good,Discharging
1566596365,-154,-284,4221000,4220000,278,Good,Discharging
1566596366,-154,-284,4221000,4220000,278,Good,Discharging
1566596367,-154,-284,4221000,4220000,278,Good,Discharging
1566596368,-154,-284,4221000,4220000,278,Good,Discharging
1566596369,-154,-284,4221000,4220000,278,Good,Discharging
1566596369,-154,-284,4221000,4220000,278,Good,Discharging
1566596370,-154,-284,4221000,4220000,278,Good,Discharging
1566596371,-154,-284,4221000,4220000,278,Good,Discharging
1566596372,-154,-284,4221000,4220000,278,Good,Discharging
1566596373,-154,-284,4221000,4220000,278,Good,Discharging
1566596374,-154,-284,4221000,4220000,278,Good,Discharging
1566596374,-154,-284,4221000,4220000,278,Good,Discharging
1566596375,-154,-284,4221000,4220000,278,Good,Discharging
1566596376,-154,-284,4221000,4220000,278,Good,Discharging
1566596377,-154,-284,4221000,4220000,278,Good,Discharging
1566596378,-154,-284,4221000,4220000,278,Good,Discharging
1566596379,-154,-284,4221000,4220000,278,Good,Discharging
1566596379,-154,-284,4221000,4220000,278,Good,Discharging
1566596380,-154,-284,4221000,4220000,278,Good,Discharging
1566596381,-154,-284,4221000,4220000,278,Good,Discharging
1566596382,-154,-284,4221000,4220000,278,Good,Discharging
1566596383,-154,-284,4221000,4220000,278,Good,Discharging
1566596383,-154,-284,4221000,4220000,278,Good,Discharging
1566596384,-154,-284,4221000,4220000,278,Good,Discharging
1566596385,-154,-284,4221000,4220000,278,Good,Discharging
1566596386,-154,-284,4221000,4220000,278,Good,Discharging
1566596387,-154,-284,4221000,4220000,278,Good,Discharging
1566596388,-154,-284,4221000,4220000,278,Good,Discharging
1566596388,-154,-284,4221000,4220000,278,Good,Discharging
1566596389,-299,-265,4218000,4218000,278,Good,Discharging
1566596390,-299,-265,4218000,4218000,278,Good,Discharging
1566596391,-299,-265,4218000,4218000,278,Good,Discharging
1566596392,-299,-265,4218000,4218000,278,Good,Discharging
1566596393,-299,-265,4218000,4218000,278,Good,Discharging
1566596393,-299,-265,4218000,4218000,278,Good,Discharging
1566596394,-299,-265,4218000,4218000,278,Good,Discharging
1566596395,-299,-265,4218000,4218000,278,Good,Discharging
1566596396,-299,-265,4218000,4218000,278,Good,Discharging
1566596397,-299,-265,4218000,4218000,278,Good,Discharging
1566596398,-299,-265,4218000,4218000,278,Good,Discharging
1566596398,-299,-265,4218000,4218000,278,Good,Discharging
1566596399,-299,-265,4218000,4218000,278,Good,Discharging
1566596400,-299,-265,4218000,4218000,278,Good,Discharging
1566596401,-299,-265,4218000,4218000,278,Good,Discharging
1566596402,-299,-265,4218000,4218000,278,Good,Discharging
1566596403,-299,-265,4218000,4218000,278,Good,Discharging
1566596404,-299,-265,4218000,4218000,278,Good,Discharging
1566596404,-299,-265,4218000,4218000,278,Good,Discharging
1566596405,-299,-265,4218000,4218000,278,Good,Discharging
1566596406,-299,-265,4218000,4218000,278,Good,Discharging
1566596407,-299,-265,4218000,4218000,279,Good,Discharging
1566596408,-299,-265,4218000,4218000,278,Good,Discharging
1566596409,-299,-265,4218000,4218000,279,Good,Discharging
1566596409,-299,-265,4218000,4218000,278,Good,Discharging
1566596410,-299,-265,4218000,4218000,279,Good,Discharging
1566596411,-299,-265,4218000,4218000,279,Good,Discharging
1566596412,-299,-265,4218000,4218000,279,Good,Discharging
1566596413,-299,-265,4218000,4218000,278,Good,Discharging
1566596414,-299,-265,4218000,4218000,279,Good,Discharging
1566596414,-299,-265,4218000,4218000,279,Good,Discharging
1566596415,-299,-265,4218000,4218000,279,Good,Discharging
1566596416,-299,-265,4218000,4218000,279,Good,Discharging
1566596417,-299,-265,4218000,4218000,279,Good,Discharging
1566596418,-299,-265,4218000,4218000,279,Good,Discharging
1566596419,-299,-265,4218000,4218000,279,Good,Discharging
1566596419,-293,-282,4217000,4216000,279,Good,Discharging
1566596420,-293,-282,4217000,4216000,279,Good,Discharging
1566596421,-293,-282,4217000,4216000,279,Good,Discharging
1566596422,-293,-282,4217000,4216000,279,Good,Discharging
1566596423,-293,-282,4217000,4216000,279,Good,Discharging
1566596424,-293,-282,4217000,4216000,279,Good,Discharging
1566596425,-293,-282,4217000,4216000,279,Good,Discharging
1566596425,-293,-282,4217000,4216000,279,Good,Discharging
1566596426,-293,-282,4217000,4216000,279,Good,Discharging
1566596427,-293,-282,4217000,4216000,279,Good,Discharging
1566596428,-293,-282,4217000,4216000,279,Good,Discharging
1566596429,-293,-282,4217000,4216000,279,Good,Discharging
1566596430,-293,-282,4217000,4216000,279,Good,Discharging
1566596430,-293,-282,4217000,4216000,279,Good,Discharging
1566596431,-293,-282,4217000,4216000,279,Good,Discharging
1566596432,-293,-282,4217000,4216000,279,Good,Discharging
1566596433,-293,-282,4217000,4216000,279,Good,Discharging
1566596434,-293,-282,4217000,4216000,279,Good,Discharging
1566596434,-293,-282,4217000,4216000,279,Good,Discharging
1566596435,-293,-282,4217000,4216000,279,Good,Discharging
1566596436,-293,-282,4217000,4216000,279,Good,Discharging
1566596437,-293,-282,4217000,4216000,279,Good,Discharging
1566596438,-293,-282,4217000,4216000,279,Good,Discharging
1566596439,-293,-282,4217000,4216000,279,Good,Discharging
1566596440,-293,-282,4217000,4216000,279,Good,Discharging
1566596441,-293,-282,4217000,4216000,279,Good,Discharging
1566596441,-293,-282,4217000,4216000,279,Good,Discharging
1566596442,-293,-282,4217000,4216000,279,Good,Discharging
1566596443,-293,-282,4217000,4216000,279,Good,Discharging
1566596444,-293,-282,4217000,4216000,279,Good,Discharging
1566596445,-293,-282,4217000,4216000,279,Good,Discharging
1566596446,-293,-282,4217000,4216000,279,Good,Discharging
1566596447,-293,-282,4217000,4216000,279,Good,Discharging
1566596447,-293,-282,4217000,4216000,279,Good,Discharging
1566596448,-293,-282,4217000,4216000,279,Good,Discharging
1566596449,-127,-231,4222000,4222000,279,Good,Discharging
1566596450,-127,-231,4222000,4222000,279,Good,Discharging
1566596451,-127,-231,4222000,4222000,279,Good,Discharging
1566596452,-127,-231,4222000,4222000,279,Good,Discharging
1566596453,-127,-231,4222000,4222000,279,Good,Discharging
1566596453,-127,-231,4222000,4222000,279,Good,Discharging
1566596454,-127,-231,4222000,4222000,279,Good,Discharging
1566596455,-127,-231,4222000,4222000,279,Good,Discharging
1566596456,-127,-231,4222000,4222000,279,Good,Discharging
1566596457,-127,-231,4222000,4222000,279,Good,Discharging
1566596458,-127,-231,4222000,4222000,279,Good,Discharging
1566596459,-127,-231,4222000,4222000,279,Good,Discharging
1566596459,-127,-231,4222000,4222000,279,Good,Discharging
1566596460,-127,-231,4222000,4222000,279,Good,Discharging
1566596461,-127,-231,4222000,4222000,279,Good,Discharging
1566596462,-127,-231,4222000,4222000,279,Good,Discharging
1566596463,-127,-231,4222000,4222000,279,Good,Discharging
1566596464,-127,-231,4222000,4222000,279,Good,Discharging
1566596465,-127,-231,4222000,4222000,279,Good,Discharging
1566596465,-127,-231,4222000,4222000,279,Good,Discharging
1566596466,-127,-231,4222000,4222000,279,Good,Discharging
1566596467,-127,-231,4222000,4222000,279,Good,Discharging
1566596468,-127,-231,4222000,4222000,279,Good,Discharging
1566596469,-127,-231,4222000,4222000,279,Good,Discharging
1566596470,-127,-231,4222000,4222000,279,Good,Discharging
1566596471,-127,-231,4222000,4222000,279,Good,Discharging
1566596471,-127,-231,4222000,4222000,279,Good,Discharging
