timestamp,iteration,little,big,thermalzone_temp0,thermalzone_temp1,thermalzone_temp2,thermalzone_temp3,thermalzone_temp4,current_now,current_avg,voltage_now,voltage_avg,batt_temp,capacity,health,status
1574800156041,0,1568000,2148000,420,420,350,339,313,382,386,4119000,4118000,313,80,GOOD,CHARGING
1574800156581,0,1568000,2148000,560,550,390,339,313,382,386,4119000,4118000,313,80,GOOD,CHARGING
1574800157220,0,1568000,2148000,610,610,420,339,313,382,386,4119000,4118000,313,80,GOOD,CHARGING
1574800157812,0,1568000,2148000,640,640,450,339,313,382,386,4119000,4118000,313,80,GOOD,CHARGING
1574800158435,0,1568000,2148000,660,660,460,339,313,382,386,4119000,4118000,313,80,GOOD,CHARGING
1574800159004,0,1568000,2148000,670,670,470,339,313,382,386,4119000,4118000,313,80,GOOD,CHARGING
1574800159626,0,1568000,2148000,670,670,490,339,313,382,386,4119000,4118000,313,80,GOOD,CHARGING
1574800160214,0,1568000,2148000,690,690,500,339,313,382,386,4119000,4118000,312,80,GOOD,DISCHARGING
1574800160837,0,1568000,2148000,700,700,500,341,313,-1194,-354,4038000,4038000,312,80,GOOD,DISCHARGING
1574800161410,0,1568000,2148000,700,700,510,341,313,-1194,-354,4038000,4038000,312,80,GOOD,DISCHARGING
1574800161965,0,1568000,2148000,720,720,520,341,313,-1194,-354,4038000,4038000,312,80,GOOD,DISCHARGING
1574800162613,0,1568000,2148000,720,720,520,341,313,-1194,-354,4038000,4038000,312,80,GOOD,DISCHARGING
1574800163163,0,1568000,2148000,740,740,530,341,313,-1194,-354,4038000,4038000,312,80,GOOD,DISCHARGING
1574800163750,0,1568000,2148000,740,740,540,341,313,-1194,-354,4038000,4038000,311,80,GOOD,DISCHARGING
1574800164320,0,1568000,2148000,730,730,540,341,313,-1194,-354,4038000,4038000,311,80,GOOD,DISCHARGING
1574800164930,0,1568000,2148000,720,710,540,341,313,-1194,-354,4038000,4038000,312,80,GOOD,DISCHARGING
1574800165485,0,1568000,2148000,740,740,550,341,313,-1194,-354,4038000,4038000,311,80,GOOD,DISCHARGING
1574800166118,0,1568000,2148000,750,750,550,341,313,-1194,-354,4038000,4038000,311,80,GOOD,DISCHARGING
1574800166737,0,1568000,2148000,760,760,550,341,313,-1194,-354,4038000,4038000,311,80,GOOD,DISCHARGING
1574800167337,0,1568000,2148000,760,760,560,341,313,-1194,-354,4038000,4038000,311,80,GOOD,DISCHARGING
1574800167938,0,1568000,2148000,760,760,560,341,313,-1194,-354,4038000,4038000,311,80,GOOD,DISCHARGING
1574800168545,0,1568000,2148000,750,750,560,341,313,-1194,-354,4038000,4038000,311,80,GOOD,DISCHARGING
1574800169136,0,1568000,2148000,750,750,570,341,313,-1194,-354,4038000,4038000,311,80,GOOD,DISCHARGING
1574800169712,0,1568000,2148000,760,760,570,341,313,-1194,-354,4038000,4038000,311,80,GOOD,DISCHARGING
1574800170306,0,1568000,2148000,760,760,570,341,313,-1194,-354,4038000,4038000,311,80,GOOD,DISCHARGING
1574800170906,0,1568000,2148000,750,750,570,341,313,-1194,-354,4038000,4038000,311,80,GOOD,DISCHARGING
1574800171491,0,1568000,2148000,760,760,570,341,313,-1194,-354,4038000,4038000,311,80,GOOD,DISCHARGING
1574800172065,0,1568000,2148000,750,750,570,341,313,-1194,-354,4038000,4038000,311,80,GOOD,DISCHARGING
1574800172686,0,1568000,2148000,760,760,580,341,313,-1194,-354,4038000,4038000,312,80,GOOD,DISCHARGING
1574800173317,0,1568000,2148000,760,760,580,341,313,-1194,-354,4038000,4038000,311,80,GOOD,DISCHARGING
1574800173925,0,1568000,2148000,760,760,580,341,313,-1194,-354,4038000,4038000,312,80,GOOD,DISCHARGING
1574800174511,0,1568000,2148000,760,760,580,341,313,-1194,-354,4038000,4038000,312,80,GOOD,DISCHARGING
1574800175094,0,1568000,2148000,760,760,580,341,313,-1194,-354,4038000,4038000,312,80,GOOD,DISCHARGING
1574800175707,0,1568000,2148000,760,760,580,341,313,-1194,-354,4038000,4038000,312,80,GOOD,DISCHARGING
1574800176296,0,1568000,2148000,750,750,580,341,313,-1194,-354,4038000,4038000,312,80,GOOD,DISCHARGING
1574800176856,0,1568000,2148000,760,760,580,341,313,-1194,-354,4038000,4038000,312,80,GOOD,DISCHARGING
1574800177469,0,1568000,2148000,760,760,590,341,313,-1194,-354,4038000,4038000,312,80,GOOD,DISCHARGING
1574800178076,0,1568000,2148000,770,760,580,341,313,-1194,-354,4038000,4038000,312,80,GOOD,DISCHARGING
1574800178672,0,1568000,2148000,760,760,580,341,313,-1194,-354,4038000,4038000,312,80,GOOD,DISCHARGING
1574800179249,0,1568000,2148000,760,760,580,341,313,-1194,-354,4038000,4038000,312,80,GOOD,DISCHARGING
1574800179859,0,1568000,2148000,760,760,580,341,313,-1194,-354,4038000,4038000,312,80,GOOD,DISCHARGING
1574800180440,0,1568000,2148000,760,760,580,341,313,-1194,-354,4038000,4038000,312,80,GOOD,DISCHARGING
1574800181047,0,1568000,2148000,760,760,590,341,313,-1194,-354,4038000,4038000,312,80,GOOD,DISCHARGING
1574800181649,0,1568000,2148000,750,750,590,341,313,-1194,-354,4038000,4038000,312,80,GOOD,DISCHARGING
1574800182235,0,1568000,2148000,760,760,590,341,313,-1194,-354,4038000,4038000,312,80,GOOD,DISCHARGING
1574800182818,0,1568000,2148000,760,760,590,341,313,-1194,-354,4038000,4038000,312,80,GOOD,DISCHARGING
1574800183420,0,1568000,2148000,760,760,590,341,313,-1194,-354,4038000,4038000,313,80,GOOD,DISCHARGING
1574800184014,0,1568000,2148000,770,770,590,341,313,-1194,-354,4038000,4038000,312,80,GOOD,DISCHARGING
1574800184620,0,1568000,2148000,760,760,590,341,313,-1194,-354,4038000,4038000,313,80,GOOD,DISCHARGING
1574800185175,0,1568000,2148000,760,760,590,341,313,-1194,-354,4038000,4038000,312,80,GOOD,DISCHARGING
1574800185757,0,1568000,2148000,750,750,590,341,313,-1194,-354,4038000,4038000,312,80,GOOD,DISCHARGING
1574800186364,0,1568000,2148000,760,760,590,341,313,-1194,-354,4038000,4038000,313,80,GOOD,DISCHARGING
1574800186940,0,1568000,2148000,760,760,590,341,313,-1194,-354,4038000,4038000,313,80,GOOD,DISCHARGING
1574800187493,0,1568000,2148000,760,760,590,341,313,-1194,-354,4038000,4038000,313,80,GOOD,DISCHARGING
1574800188072,0,1568000,2148000,770,770,590,341,313,-1194,-354,4038000,4038000,313,80,GOOD,DISCHARGING
1574800188656,0,1568000,2148000,750,760,590,341,313,-1194,-354,4038000,4038000,313,80,GOOD,DISCHARGING
1574800189246,0,1568000,2148000,760,760,590,341,313,-1194,-354,4038000,4038000,313,80,GOOD,DISCHARGING
1574800189844,0,1568000,2148000,760,750,590,341,313,-1194,-354,4038000,4038000,313,80,GOOD,DISCHARGING
1574800190442,0,1568000,2148000,770,770,590,341,313,-1194,-354,4038000,4038000,313,80,GOOD,DISCHARGING
1574800191053,0,1568000,2148000,760,770,590,385,313,-1367,-1093,3940000,3940000,313,80,GOOD,DISCHARGING
1574800191644,0,1568000,2148000,760,760,590,385,313,-1367,-1093,3940000,3940000,313,80,GOOD,DISCHARGING
1574800192219,0,1568000,2148000,760,760,590,385,313,-1367,-1093,3940000,3940000,313,80,GOOD,DISCHARGING
1574800192807,0,1568000,2148000,760,770,590,385,313,-1367,-1093,3940000,3940000,313,80,GOOD,DISCHARGING
1574800193403,0,1568000,2148000,760,760,590,385,313,-1367,-1093,3940000,3940000,313,80,GOOD,DISCHARGING
1574800193979,0,1568000,2148000,760,760,590,385,313,-1367,-1093,3940000,3940000,313,80,GOOD,DISCHARGING
1574800194570,0,1568000,2148000,760,770,590,385,313,-1367,-1093,3940000,3940000,313,80,GOOD,DISCHARGING
1574800195138,0,1568000,2148000,770,760,590,385,313,-1367,-1093,3940000,3940000,313,80,GOOD,DISCHARGING
1574800195727,0,1568000,2148000,760,770,590,385,313,-1367,-1093,3940000,3940000,313,80,GOOD,DISCHARGING
1574800196306,0,1568000,2148000,770,770,590,385,313,-1367,-1093,3940000,3940000,313,80,GOOD,DISCHARGING
1574800196871,0,1568000,2148000,760,760,600,385,313,-1367,-1093,3940000,3940000,313,80,GOOD,DISCHARGING
1574800197443,0,1568000,2148000,760,760,590,385,313,-1367,-1093,3940000,3940000,313,80,GOOD,DISCHARGING
1574800198048,0,1568000,2148000,760,760,590,385,313,-1367,-1093,3940000,3940000,313,80,GOOD,DISCHARGING
1574800198658,0,1568000,2148000,770,770,590,385,313,-1367,-1093,3940000,3940000,313,80,GOOD,DISCHARGING
1574800199260,0,1568000,2148000,770,760,590,385,313,-1367,-1093,3940000,3940000,313,80,GOOD,DISCHARGING
1574800199845,0,1568000,2148000,760,760,590,385,313,-1367,-1093,3940000,3940000,314,80,GOOD,DISCHARGING
1574800200432,0,1568000,2148000,760,760,590,385,313,-1367,-1093,3940000,3940000,313,80,GOOD,DISCHARGING
1574800201023,0,1568000,2148000,750,750,600,385,313,-1367,-1093,3940000,3940000,314,80,GOOD,DISCHARGING
1574800201603,0,1568000,2148000,760,760,600,385,313,-1367,-1093,3940000,3940000,314,80,GOOD,DISCHARGING
1574800202191,0,1568000,2148000,770,760,600,385,313,-1367,-1093,3940000,3940000,314,80,GOOD,DISCHARGING
1574800202787,0,1568000,2148000,760,770,600,385,313,-1367,-1093,3940000,3940000,314,80,GOOD,DISCHARGING
1574800203358,0,1568000,2148000,750,760,600,385,313,-1367,-1093,3940000,3940000,314,80,GOOD,DISCHARGING
1574800203958,0,1568000,2148000,750,750,590,385,313,-1367,-1093,3940000,3940000,314,80,GOOD,DISCHARGING
1574800204556,0,1568000,2148000,760,760,590,385,313,-1367,-1093,3940000,3940000,314,80,GOOD,DISCHARGING
1574800205147,0,1568000,2148000,760,760,600,385,313,-1367,-1093,3940000,3940000,314,80,GOOD,DISCHARGING
1574800205731,0,1568000,2148000,760,760,600,385,313,-1367,-1093,3940000,3940000,314,80,GOOD,DISCHARGING
1574800206328,0,1568000,2148000,760,760,600,385,313,-1367,-1093,3940000,3940000,314,80,GOOD,DISCHARGING
1574800206927,0,1568000,2148000,760,760,600,385,313,-1367,-1093,3940000,3940000,314,80,GOOD,DISCHARGING
1574800207492,0,1568000,2148000,760,760,600,385,313,-1367,-1093,3940000,3940000,314,80,GOOD,DISCHARGING
1574800208111,0,1568000,2148000,760,760,600,385,313,-1367,-1093,3940000,3940000,315,80,GOOD,DISCHARGING
1574800208683,0,1568000,2148000,760,760,600,385,313,-1367,-1093,3940000,3940000,314,80,GOOD,DISCHARGING
1574800209258,0,1568000,2148000,760,760,590,385,313,-1367,-1093,3940000,3940000,315,80,GOOD,DISCHARGING
1574800209825,0,1568000,2148000,760,760,590,385,313,-1367,-1093,3940000,3940000,315,80,GOOD,DISCHARGING
1574800210382,0,1568000,2148000,760,760,600,385,313,-1367,-1093,3940000,3940000,315,80,GOOD,DISCHARGING
1574800210969,0,1568000,2148000,760,760,600,385,313,-1367,-1093,3940000,3940000,315,80,GOOD,DISCHARGING
1574800211560,0,1568000,2148000,760,760,590,385,313,-1367,-1093,3940000,3940000,315,80,GOOD,DISCHARGING
1574800212134,0,1568000,2148000,760,760,600,385,313,-1367,-1093,3940000,3940000,315,80,GOOD,DISCHARGING
1574800212741,0,1568000,2148000,760,760,600,385,313,-1367,-1093,3940000,3940000,315,80,GOOD,DISCHARGING
1574800213323,0,1568000,2148000,760,760,600,385,313,-1367,-1093,3940000,3940000,315,80,GOOD,DISCHARGING
1574800213911,0,1568000,2148000,760,760,600,385,313,-1367,-1093,3940000,3940000,315,80,GOOD,DISCHARGING
1574800214511,0,1568000,2148000,760,760,590,385,313,-1367,-1093,3940000,3940000,316,80,GOOD,DISCHARGING
1574800215089,0,1568000,2148000,760,760,600,385,313,-1367,-1093,3940000,3940000,316,80,GOOD,DISCHARGING
1574800215656,0,1568000,2148000,770,770,600,385,313,-1367,-1093,3940000,3940000,315,80,GOOD,DISCHARGING
1574800216276,0,1568000,2148000,760,760,600,385,313,-1367,-1093,3940000,3940000,316,80,GOOD,DISCHARGING
1574800216885,0,1568000,2148000,760,760,600,385,313,-1367,-1093,3940000,3940000,316,80,GOOD,DISCHARGING
1574800217487,0,1568000,2148000,760,760,600,385,313,-1367,-1093,3940000,3940000,316,80,GOOD,DISCHARGING
1574800218048,0,1568000,2148000,750,750,590,385,313,-1367,-1093,3940000,3940000,316,80,GOOD,DISCHARGING
1574800218645,0,1568000,2148000,760,760,600,385,313,-1367,-1093,3940000,3940000,316,80,GOOD,DISCHARGING
1574800219232,0,1568000,2148000,750,750,600,385,313,-1367,-1093,3940000,3940000,316,80,GOOD,DISCHARGING
1574800219840,0,1568000,2148000,760,760,600,385,313,-1367,-1093,3940000,3940000,316,80,GOOD,DISCHARGING
1574800220435,0,1568000,2148000,770,760,600,385,313,-1367,-1093,3940000,3940000,316,80,GOOD,DISCHARGING
1574800221003,0,1568000,2148000,760,760,600,428,316,-851,-1137,3924000,3924000,316,80,GOOD,DISCHARGING
1574800221599,0,1568000,2148000,750,750,600,428,316,-851,-1137,3924000,3924000,316,80,GOOD,DISCHARGING
1574800222187,0,1568000,2148000,760,760,600,428,316,-851,-1137,3924000,3924000,316,80,GOOD,DISCHARGING
1574800222776,0,1568000,2148000,770,770,600,428,316,-851,-1137,3924000,3924000,316,80,GOOD,DISCHARGING
1574800223374,0,1568000,2148000,760,760,600,428,316,-851,-1137,3924000,3924000,316,80,GOOD,DISCHARGING
1574800223973,0,1568000,2148000,760,760,600,428,316,-851,-1137,3924000,3924000,316,80,GOOD,DISCHARGING
1574800224562,0,1568000,2148000,750,750,600,428,316,-851,-1137,3924000,3924000,316,80,GOOD,DISCHARGING
1574800225179,0,1568000,2148000,760,760,600,428,316,-851,-1137,3924000,3924000,316,80,GOOD,DISCHARGING
1574800225765,0,1568000,2148000,760,760,600,428,316,-851,-1137,3924000,3924000,317,80,GOOD,DISCHARGING
1574800226371,0,1568000,2148000,750,750,600,428,316,-851,-1137,3924000,3924000,317,80,GOOD,DISCHARGING
1574800226963,0,1568000,2148000,760,760,600,428,316,-851,-1137,3924000,3924000,317,80,GOOD,DISCHARGING
1574800227570,0,1568000,2148000,760,760,600,428,316,-851,-1137,3924000,3924000,317,80,GOOD,DISCHARGING
1574800228145,0,1568000,2148000,760,760,600,428,316,-851,-1137,3924000,3924000,317,80,GOOD,DISCHARGING
1574800228707,0,1568000,2148000,760,760,600,428,316,-851,-1137,3924000,3924000,317,80,GOOD,DISCHARGING
1574800229316,0,1568000,2148000,750,750,600,428,316,-851,-1137,3924000,3924000,317,80,GOOD,DISCHARGING
1574800229903,0,1568000,2148000,770,770,600,428,316,-851,-1137,3924000,3924000,317,80,GOOD,DISCHARGING
1574800230518,0,1568000,2148000,760,760,600,428,316,-851,-1137,3924000,3924000,317,80,GOOD,DISCHARGING
1574800231104,0,1568000,2148000,760,760,600,428,316,-851,-1137,3924000,3924000,317,80,GOOD,DISCHARGING
1574800231702,0,1568000,2148000,750,750,600,428,316,-851,-1137,3924000,3924000,318,80,GOOD,DISCHARGING
1574800232275,0,1568000,2148000,760,760,600,428,316,-851,-1137,3924000,3924000,317,80,GOOD,DISCHARGING
1574800232876,0,1568000,2148000,750,760,600,428,316,-851,-1137,3924000,3924000,317,80,GOOD,DISCHARGING
1574800233469,0,1568000,2148000,770,760,610,428,316,-851,-1137,3924000,3924000,318,80,GOOD,DISCHARGING
1574800234056,0,1568000,2148000,760,760,610,428,316,-851,-1137,3924000,3924000,318,80,GOOD,DISCHARGING
1574800234659,0,1568000,2148000,760,760,610,428,316,-851,-1137,3924000,3924000,318,80,GOOD,DISCHARGING
1574800235226,0,1568000,2148000,760,760,600,428,316,-851,-1137,3924000,3924000,318,80,GOOD,DISCHARGING
1574800235839,0,1568000,2148000,760,770,600,428,316,-851,-1137,3924000,3924000,318,80,GOOD,DISCHARGING
1574800236411,0,1568000,2148000,770,770,600,428,316,-851,-1137,3924000,3924000,318,80,GOOD,DISCHARGING
1574800237011,0,1568000,2148000,760,760,610,428,316,-851,-1137,3924000,3924000,318,80,GOOD,DISCHARGING
1574800237599,0,1568000,2148000,750,760,610,428,316,-851,-1137,3924000,3924000,318,80,GOOD,DISCHARGING
1574800238182,0,1568000,2148000,760,760,600,428,316,-851,-1137,3924000,3924000,318,80,GOOD,DISCHARGING
1574800238778,0,1568000,2148000,770,770,600,428,316,-851,-1137,3924000,3924000,318,80,GOOD,DISCHARGING
1574800239385,0,1568000,2148000,750,750,610,428,316,-851,-1137,3924000,3924000,318,80,GOOD,DISCHARGING
1574800239999,0,1568000,2148000,760,760,600,428,316,-851,-1137,3924000,3924000,319,80,GOOD,DISCHARGING
1574800240615,0,1568000,2148000,760,760,600,428,316,-851,-1137,3924000,3924000,319,80,GOOD,DISCHARGING
1574800241207,0,1568000,2148000,760,760,600,428,316,-851,-1137,3924000,3924000,319,80,GOOD,DISCHARGING
1574800241816,0,1568000,2148000,760,760,600,428,316,-851,-1137,3924000,3924000,319,80,GOOD,DISCHARGING
1574800242415,0,1568000,2148000,760,760,600,428,316,-851,-1137,3924000,3924000,319,80,GOOD,DISCHARGING
1574800243012,0,1568000,2148000,760,760,610,428,316,-851,-1137,3924000,3924000,319,80,GOOD,DISCHARGING
1574800243593,0,1568000,2148000,760,760,610,428,316,-851,-1137,3924000,3924000,319,80,GOOD,DISCHARGING
1574800244177,0,1568000,2148000,760,760,600,428,316,-851,-1137,3924000,3924000,319,80,GOOD,DISCHARGING
1574800244790,0,1568000,2148000,770,760,600,428,316,-851,-1137,3924000,3924000,319,80,GOOD,DISCHARGING
1574800245388,0,1568000,2148000,760,760,610,428,316,-851,-1137,3924000,3924000,319,80,GOOD,DISCHARGING
1574800245988,0,1568000,2148000,770,760,610,428,316,-851,-1137,3924000,3924000,319,80,GOOD,DISCHARGING
1574800246599,0,1568000,2148000,760,760,610,428,316,-851,-1137,3924000,3924000,320,80,GOOD,DISCHARGING
1574800247182,0,1568000,2148000,770,770,600,428,316,-851,-1137,3924000,3924000,320,80,GOOD,DISCHARGING
1574800247750,0,1568000,2148000,760,760,600,428,316,-851,-1137,3924000,3924000,320,80,GOOD,DISCHARGING
1574800248375,0,1568000,2148000,760,760,610,428,316,-851,-1137,3924000,3924000,320,80,GOOD,DISCHARGING
1574800248947,0,1568000,2148000,770,750,610,428,316,-851,-1137,3924000,3924000,320,80,GOOD,DISCHARGING
1574800249542,0,1568000,2148000,760,760,610,428,316,-851,-1137,3924000,3924000,320,80,GOOD,DISCHARGING
1574800250128,0,1568000,2148000,760,760,600,428,316,-851,-1137,3924000,3924000,320,80,GOOD,DISCHARGING
1574800250698,0,1568000,2148000,770,770,610,428,316,-851,-1137,3924000,3924000,320,80,GOOD,DISCHARGING
1574800251304,0,1568000,2148000,760,760,610,406,320,-1190,-1109,3910000,3910000,320,79,GOOD,DISCHARGING
1574800251908,0,1568000,2148000,760,760,610,406,320,-1190,-1109,3910000,3910000,320,79,GOOD,DISCHARGING
1574800252442,0,1568000,2148000,760,760,600,406,320,-1190,-1109,3910000,3910000,320,79,GOOD,DISCHARGING
1574800253049,0,1568000,2148000,760,760,610,406,320,-1190,-1109,3910000,3910000,320,79,GOOD,DISCHARGING
1574800253620,0,1568000,2148000,760,760,610,406,320,-1190,-1109,3910000,3910000,321,79,GOOD,DISCHARGING
1574800254176,0,1568000,2148000,760,760,610,406,320,-1190,-1109,3910000,3910000,320,79,GOOD,DISCHARGING
1574800254792,0,1568000,2148000,750,750,610,406,320,-1190,-1109,3910000,3910000,320,79,GOOD,DISCHARGING
1574800255400,0,1568000,2148000,760,760,610,406,320,-1190,-1109,3910000,3910000,321,79,GOOD,DISCHARGING
1574800255969,0,1568000,2148000,750,760,600,406,320,-1190,-1109,3910000,3910000,321,79,GOOD,DISCHARGING
1574800256508,0,1568000,2148000,750,750,600,406,320,-1190,-1109,3910000,3910000,321,79,GOOD,DISCHARGING
1574800257111,0,1568000,2148000,770,760,610,406,320,-1190,-1109,3910000,3910000,321,79,GOOD,DISCHARGING
1574800257701,0,1568000,2148000,760,760,610,406,320,-1190,-1109,3910000,3910000,321,79,GOOD,DISCHARGING
1574800258236,0,1568000,2148000,760,760,610,406,320,-1190,-1109,3910000,3910000,321,79,GOOD,DISCHARGING
1574800258780,0,1568000,2148000,760,760,600,406,320,-1190,-1109,3910000,3910000,321,79,GOOD,DISCHARGING
1574800259335,0,1568000,2148000,760,760,610,406,320,-1190,-1109,3910000,3910000,321,79,GOOD,DISCHARGING
1574800259916,0,1568000,2148000,760,760,610,406,320,-1190,-1109,3910000,3910000,321,79,GOOD,DISCHARGING
1574800260514,0,1568000,2148000,760,760,610,406,320,-1190,-1109,3910000,3910000,321,79,GOOD,DISCHARGING
1574800261107,0,1568000,2148000,760,760,610,406,320,-1190,-1109,3910000,3910000,321,79,GOOD,DISCHARGING
1574800261678,0,1568000,2148000,760,760,610,406,320,-1190,-1109,3910000,3910000,322,79,GOOD,DISCHARGING
1574800262255,0,1568000,2148000,760,750,610,406,320,-1190,-1109,3910000,3910000,321,79,GOOD,DISCHARGING
1574800262860,0,1568000,2148000,770,770,610,406,320,-1190,-1109,3910000,3910000,322,79,GOOD,DISCHARGING
1574800263443,0,1568000,2148000,760,760,610,406,320,-1190,-1109,3910000,3910000,321,79,GOOD,DISCHARGING
1574800264020,0,1568000,2148000,760,760,610,406,320,-1190,-1109,3910000,3910000,322,79,GOOD,DISCHARGING
1574800264584,0,1568000,2148000,760,760,610,406,320,-1190,-1109,3910000,3910000,322,79,GOOD,DISCHARGING
1574800265207,0,1568000,2148000,760,760,610,406,320,-1190,-1109,3910000,3910000,322,79,GOOD,DISCHARGING
1574800265811,0,1568000,2148000,750,750,610,406,320,-1190,-1109,3910000,3910000,322,79,GOOD,DISCHARGING
1574800266395,0,1568000,2148000,760,760,610,406,320,-1190,-1109,3910000,3910000,322,79,GOOD,DISCHARGING
1574800266985,0,1568000,2148000,750,750,610,406,320,-1190,-1109,3910000,3910000,322,79,GOOD,DISCHARGING
1574800267571,0,1568000,2148000,760,760,610,406,320,-1190,-1109,3910000,3910000,323,79,GOOD,DISCHARGING
1574800268145,0,1568000,2148000,760,760,610,406,320,-1190,-1109,3910000,3910000,323,79,GOOD,DISCHARGING
1574800268715,0,1568000,2148000,750,750,610,406,320,-1190,-1109,3910000,3910000,323,79,GOOD,DISCHARGING
1574800269311,0,1568000,2148000,760,760,610,406,320,-1190,-1109,3910000,3910000,323,79,GOOD,DISCHARGING
1574800269903,0,1568000,2148000,770,770,610,406,320,-1190,-1109,3910000,3910000,323,79,GOOD,DISCHARGING
1574800270487,0,1568000,2148000,760,760,610,406,320,-1190,-1109,3910000,3910000,323,79,GOOD,DISCHARGING
1574800271094,0,1568000,2148000,760,760,610,406,320,-1190,-1109,3910000,3910000,323,79,GOOD,DISCHARGING
1574800271667,0,1568000,2148000,760,770,610,406,320,-1190,-1109,3910000,3910000,323,79,GOOD,DISCHARGING
1574800272260,0,1568000,2148000,750,750,610,406,320,-1190,-1109,3910000,3910000,323,79,GOOD,DISCHARGING
1574800272863,0,1568000,2148000,760,760,610,406,320,-1190,-1109,3910000,3910000,323,79,GOOD,DISCHARGING
1574800273459,0,1568000,2148000,750,750,610,406,320,-1190,-1109,3910000,3910000,323,79,GOOD,DISCHARGING
1574800274071,0,1568000,2148000,770,770,610,406,320,-1190,-1109,3910000,3910000,323,79,GOOD,DISCHARGING
1574800274648,0,1568000,2148000,760,760,610,406,320,-1190,-1109,3910000,3910000,323,79,GOOD,DISCHARGING
1574800275246,0,1568000,2148000,770,760,610,406,320,-1190,-1109,3910000,3910000,324,79,GOOD,DISCHARGING
1574800275807,0,1568000,2148000,760,760,610,406,320,-1190,-1109,3910000,3910000,324,79,GOOD,DISCHARGING
