timestamp,iteration,little,big,thermalzone_temp0,thermalzone_temp1,thermalzone_temp2,thermalzone_temp3,thermalzone_temp4,current_now,current_avg,voltage_now,voltage_avg,batt_temp,capacity,health,status
1575392248153,0,1568000,2148000,350,350,310,296,272,410,389,4042000,4042000,272,70,GOOD,CHARGING
1575392248673,0,1568000,2148000,480,480,340,296,272,410,389,4042000,4042000,272,70,GOOD,CHARGING
1575392249246,0,1568000,2148000,480,480,360,296,272,410,389,4042000,4042000,272,70,GOOD,CHARGING
1575392249762,0,1568000,2148000,490,490,380,296,272,410,389,4042000,4042000,272,70,GOOD,CHARGING
1575392250333,0,1568000,2148000,540,540,390,296,272,410,389,4042000,4042000,272,70,GOOD,CHARGING
1575392250855,0,1568000,2148000,560,560,400,296,272,410,389,4042000,4042000,272,70,GOOD,CHARGING
1575392251443,0,1568000,2148000,560,560,410,296,272,410,389,4042000,4042000,272,70,GOOD,CHARGING
1575392251998,0,1568000,2148000,570,570,420,297,272,-287,-99,3977000,3976000,272,70,GOOD,CHARGING
1575392252560,0,1568000,2148000,560,560,430,297,272,-287,-99,3977000,3976000,272,70,GOOD,CHARGING
1575392253149,0,1568000,2148000,580,580,430,297,272,-841,-233,3977000,3976000,272,70,GOOD,DISCHARGING
1575392253714,0,1568000,2148000,560,560,430,297,272,-841,-233,3977000,3976000,272,70,GOOD,DISCHARGING
1575392254238,0,1568000,2148000,560,560,430,297,272,-841,-233,3977000,3976000,271,70,GOOD,DISCHARGING
1575392254818,0,1568000,2148000,590,590,440,297,272,-841,-233,3977000,3976000,271,70,GOOD,DISCHARGING
1575392255377,0,1568000,2148000,580,580,450,297,272,-841,-233,3977000,3976000,271,70,GOOD,DISCHARGING
1575392255958,0,1568000,2148000,590,590,450,297,272,-841,-233,3977000,3976000,271,70,GOOD,DISCHARGING
1575392256514,0,1568000,2148000,590,590,450,297,272,-841,-233,3977000,3976000,271,70,GOOD,DISCHARGING
1575392257082,0,1568000,2148000,570,570,450,297,272,-841,-233,3977000,3976000,271,70,GOOD,DISCHARGING
1575392257630,0,1568000,2148000,590,590,460,297,272,-841,-233,3977000,3976000,271,70,GOOD,DISCHARGING
1575392258155,0,1568000,2148000,580,580,460,297,272,-841,-233,3977000,3976000,271,70,GOOD,DISCHARGING
1575392258707,0,1568000,2148000,610,590,460,297,272,-841,-233,3977000,3976000,270,70,GOOD,DISCHARGING
1575392259266,0,1568000,2148000,580,580,470,297,272,-841,-233,3977000,3976000,271,70,GOOD,DISCHARGING
1575392259805,0,1568000,2148000,620,620,460,297,272,-841,-233,3977000,3976000,270,70,GOOD,DISCHARGING
1575392260383,0,1568000,2148000,580,580,470,297,272,-841,-233,3977000,3976000,270,70,GOOD,DISCHARGING
1575392260956,0,1568000,2148000,610,610,470,297,272,-841,-233,3977000,3976000,270,70,GOOD,DISCHARGING
1575392261529,0,1568000,2148000,600,600,470,297,272,-841,-233,3977000,3976000,271,70,GOOD,DISCHARGING
1575392262061,0,1568000,2148000,620,620,470,297,272,-841,-233,3977000,3976000,271,70,GOOD,DISCHARGING
1575392262580,0,1568000,2148000,620,620,470,297,272,-841,-233,3977000,3976000,271,70,GOOD,DISCHARGING
1575392263099,0,1568000,2148000,600,600,470,297,272,-841,-233,3977000,3976000,270,70,GOOD,DISCHARGING
1575392263644,0,1568000,2148000,630,630,470,297,272,-841,-233,3977000,3976000,271,70,GOOD,DISCHARGING
1575392264176,0,1568000,2148000,640,640,480,297,272,-841,-233,3977000,3976000,270,70,GOOD,DISCHARGING
1575392264738,0,1568000,2148000,600,600,480,297,272,-841,-233,3977000,3976000,270,70,GOOD,DISCHARGING
1575392265309,0,1568000,2148000,620,620,480,297,272,-841,-233,3977000,3976000,271,70,GOOD,DISCHARGING
1575392265823,0,1568000,2148000,630,630,480,297,272,-841,-233,3977000,3976000,270,70,GOOD,DISCHARGING
1575392266378,0,1568000,2148000,610,610,480,297,272,-841,-233,3977000,3976000,271,70,GOOD,DISCHARGING
1575392266898,0,1568000,2148000,620,620,490,297,272,-841,-233,3977000,3976000,271,70,GOOD,DISCHARGING
1575392267428,0,1568000,2148000,600,600,480,297,272,-841,-233,3977000,3976000,271,70,GOOD,DISCHARGING
1575392267947,0,1568000,2148000,620,630,490,297,272,-841,-233,3977000,3976000,271,70,GOOD,DISCHARGING
1575392268465,0,1568000,2148000,630,630,490,297,272,-841,-233,3977000,3976000,270,70,GOOD,DISCHARGING
1575392269021,0,1568000,2148000,630,630,490,297,272,-841,-233,3977000,3976000,271,70,GOOD,DISCHARGING
1575392269589,0,1568000,2148000,610,610,490,297,272,-841,-233,3977000,3976000,271,70,GOOD,DISCHARGING
1575392270113,0,1568000,2148000,600,600,490,297,272,-841,-233,3977000,3976000,272,70,GOOD,DISCHARGING
1575392270630,0,1568000,2148000,620,620,490,297,272,-841,-233,3977000,3976000,271,70,GOOD,DISCHARGING
1575392271161,0,1568000,2148000,620,610,490,297,272,-841,-233,3977000,3976000,272,70,GOOD,DISCHARGING
1575392271671,0,1568000,2148000,610,610,490,297,272,-841,-233,3977000,3976000,271,70,GOOD,DISCHARGING
1575392272216,0,1568000,2148000,630,640,490,297,272,-841,-233,3977000,3976000,271,70,GOOD,DISCHARGING
1575392272731,0,1568000,2148000,640,640,490,297,272,-841,-233,3977000,3976000,271,70,GOOD,DISCHARGING
1575392273289,0,1568000,2148000,630,630,490,297,272,-841,-233,3977000,3976000,271,70,GOOD,DISCHARGING
1575392273857,0,1568000,2148000,620,620,490,297,272,-841,-233,3977000,3976000,272,70,GOOD,DISCHARGING
1575392274368,0,1568000,2148000,620,620,490,297,272,-841,-233,3977000,3976000,271,70,GOOD,DISCHARGING
1575392274892,0,1568000,2148000,640,640,490,297,272,-841,-233,3977000,3976000,272,70,GOOD,DISCHARGING
1575392275412,0,1568000,2148000,640,640,500,297,272,-841,-233,3977000,3976000,272,70,GOOD,DISCHARGING
1575392275926,0,1568000,2148000,640,640,500,297,272,-841,-233,3977000,3976000,272,70,GOOD,DISCHARGING
1575392276441,0,1568000,2148000,650,650,500,297,272,-841,-233,3977000,3976000,272,70,GOOD,DISCHARGING
1575392276956,0,1568000,2148000,650,650,500,297,272,-841,-233,3977000,3976000,272,70,GOOD,DISCHARGING
1575392277498,0,1568000,2148000,640,640,500,297,272,-841,-233,3977000,3976000,271,70,GOOD,DISCHARGING
1575392278066,0,1568000,2148000,620,620,500,297,272,-841,-233,3977000,3976000,272,70,GOOD,DISCHARGING
1575392278608,0,1568000,2148000,650,650,500,297,272,-841,-233,3977000,3976000,272,70,GOOD,DISCHARGING
1575392279144,0,1568000,2148000,660,660,500,297,272,-841,-233,3977000,3976000,272,70,GOOD,DISCHARGING
1575392279725,0,1568000,2148000,620,620,500,297,272,-841,-233,3977000,3976000,272,70,GOOD,DISCHARGING
1575392280268,0,1568000,2148000,650,650,500,297,272,-841,-233,3977000,3976000,272,70,GOOD,DISCHARGING
1575392280820,0,1568000,2148000,650,650,500,297,272,-841,-233,3977000,3976000,272,70,GOOD,DISCHARGING
1575392281377,0,1568000,2148000,640,640,500,297,272,-841,-233,3977000,3976000,272,70,GOOD,DISCHARGING
1575392281929,0,1568000,2148000,650,650,500,297,272,-841,-233,3977000,3976000,272,70,GOOD,DISCHARGING
1575392282448,0,1568000,2148000,660,660,500,297,272,-841,-233,3977000,3976000,272,70,GOOD,DISCHARGING
1575392283013,0,1568000,2148000,620,630,500,297,272,-841,-233,3977000,3976000,272,70,GOOD,DISCHARGING
1575392283575,0,1568000,2148000,630,630,500,330,272,-1072,-872,3877000,3876000,272,70,GOOD,DISCHARGING
1575392284088,0,1568000,2148000,630,640,500,330,272,-1072,-872,3877000,3876000,272,70,GOOD,DISCHARGING
1575392284605,0,1568000,2148000,650,650,500,330,272,-1072,-872,3877000,3876000,272,70,GOOD,DISCHARGING
1575392285122,0,1568000,2148000,660,660,500,330,272,-1072,-872,3877000,3876000,272,70,GOOD,DISCHARGING
1575392285640,0,1568000,2148000,660,660,500,330,272,-1072,-872,3877000,3876000,272,70,GOOD,DISCHARGING
1575392286152,0,1568000,2148000,660,660,510,330,272,-1072,-872,3877000,3876000,272,70,GOOD,DISCHARGING
1575392286721,0,1568000,2148000,630,630,500,330,272,-1072,-872,3877000,3876000,272,70,GOOD,DISCHARGING
1575392287265,0,1568000,2148000,630,630,510,330,272,-1072,-872,3877000,3876000,272,70,GOOD,DISCHARGING
1575392287775,0,1568000,2148000,660,660,510,330,272,-1072,-872,3877000,3876000,273,70,GOOD,DISCHARGING
1575392288293,0,1568000,2148000,620,640,510,330,272,-1072,-872,3877000,3876000,272,70,GOOD,DISCHARGING
1575392288828,0,1568000,2148000,660,660,500,330,272,-1072,-872,3877000,3876000,272,70,GOOD,DISCHARGING
1575392289362,0,1568000,2148000,670,670,510,330,272,-1072,-872,3877000,3876000,273,70,GOOD,DISCHARGING
1575392289875,0,1568000,2148000,640,640,500,330,272,-1072,-872,3877000,3876000,272,70,GOOD,DISCHARGING
1575392290440,0,1568000,2148000,630,630,510,330,272,-1072,-872,3877000,3876000,273,70,GOOD,DISCHARGING
1575392290951,0,1568000,2148000,650,650,510,330,272,-1072,-872,3877000,3876000,273,70,GOOD,DISCHARGING
1575392291469,0,1568000,2148000,660,660,510,330,272,-1072,-872,3877000,3876000,273,70,GOOD,DISCHARGING
1575392292033,0,1568000,2148000,670,670,510,330,272,-1072,-872,3877000,3876000,273,70,GOOD,DISCHARGING
1575392292561,0,1568000,2148000,660,660,510,330,272,-1072,-872,3877000,3876000,273,70,GOOD,DISCHARGING
1575392293109,0,1568000,2148000,620,620,510,330,272,-1072,-872,3877000,3876000,273,70,GOOD,DISCHARGING
1575392293627,0,1568000,2148000,630,640,510,330,272,-1072,-872,3877000,3876000,274,70,GOOD,DISCHARGING
1575392294143,0,1568000,2148000,620,620,510,330,272,-1072,-872,3877000,3876000,273,70,GOOD,DISCHARGING
1575392294681,0,1568000,2148000,660,660,510,330,272,-1072,-872,3877000,3876000,274,70,GOOD,DISCHARGING
1575392295201,0,1568000,2148000,660,650,510,330,272,-1072,-872,3877000,3876000,273,70,GOOD,DISCHARGING
1575392295745,0,1568000,2148000,660,660,510,330,272,-1072,-872,3877000,3876000,274,70,GOOD,DISCHARGING
1575392296263,0,1568000,2148000,650,650,510,330,272,-1072,-872,3877000,3876000,274,70,GOOD,DISCHARGING
1575392296780,0,1568000,2148000,640,640,510,330,272,-1072,-872,3877000,3876000,274,70,GOOD,DISCHARGING
1575392297290,0,1568000,2148000,650,650,510,330,272,-1072,-872,3877000,3876000,274,70,GOOD,DISCHARGING
1575392297849,0,1568000,2148000,660,660,510,330,272,-1072,-872,3877000,3876000,274,70,GOOD,DISCHARGING
1575392298359,0,1568000,2148000,660,640,510,330,272,-1072,-872,3877000,3876000,274,70,GOOD,DISCHARGING
1575392298908,0,1568000,2148000,660,660,510,330,272,-1072,-872,3877000,3876000,274,70,GOOD,DISCHARGING
1575392299420,0,1568000,2148000,660,660,510,330,272,-1072,-872,3877000,3876000,274,70,GOOD,DISCHARGING
1575392299973,0,1568000,2148000,640,640,510,330,272,-1072,-872,3877000,3876000,275,70,GOOD,DISCHARGING
1575392300490,0,1568000,2148000,660,660,510,330,272,-1072,-872,3877000,3876000,275,70,GOOD,DISCHARGING
1575392301000,0,1568000,2148000,660,660,510,330,272,-1072,-872,3877000,3876000,274,70,GOOD,DISCHARGING
1575392301517,0,1568000,2148000,640,630,510,330,272,-1072,-872,3877000,3876000,274,70,GOOD,DISCHARGING
1575392302093,0,1568000,2148000,650,650,520,330,272,-1072,-872,3877000,3876000,275,70,GOOD,DISCHARGING
1575392302607,0,1568000,2148000,660,670,510,330,272,-1072,-872,3877000,3876000,274,70,GOOD,DISCHARGING
1575392303165,0,1568000,2148000,660,660,510,330,272,-1072,-872,3877000,3876000,275,70,GOOD,DISCHARGING
1575392303678,0,1568000,2148000,660,660,510,330,272,-1072,-872,3877000,3876000,275,70,GOOD,DISCHARGING
1575392304195,0,1568000,2148000,640,640,510,330,272,-1072,-872,3877000,3876000,275,70,GOOD,DISCHARGING
1575392304721,0,1568000,2148000,660,660,510,330,272,-1072,-872,3877000,3876000,275,70,GOOD,DISCHARGING
1575392305237,0,1568000,2148000,640,630,520,330,272,-1072,-872,3877000,3876000,275,70,GOOD,DISCHARGING
1575392305780,0,1568000,2148000,670,670,510,330,272,-1072,-872,3877000,3876000,275,70,GOOD,DISCHARGING
1575392306349,0,1568000,2148000,650,650,520,330,272,-1072,-872,3877000,3876000,275,70,GOOD,DISCHARGING
1575392306885,0,1568000,2148000,670,670,520,330,272,-1072,-872,3877000,3876000,276,70,GOOD,DISCHARGING
1575392307399,0,1568000,2148000,640,640,520,330,272,-1072,-872,3877000,3876000,276,70,GOOD,DISCHARGING
1575392307916,0,1568000,2148000,670,670,520,330,272,-1072,-872,3877000,3876000,276,70,GOOD,DISCHARGING
1575392308429,0,1568000,2148000,660,660,520,330,272,-1072,-872,3877000,3876000,276,70,GOOD,DISCHARGING
1575392308946,0,1568000,2148000,670,670,520,330,272,-1072,-872,3877000,3876000,276,70,GOOD,DISCHARGING
1575392309457,0,1568000,2148000,660,660,520,330,272,-1072,-872,3877000,3876000,276,70,GOOD,DISCHARGING
1575392309968,0,1568000,2148000,660,660,520,330,272,-1072,-872,3877000,3876000,276,70,GOOD,DISCHARGING
1575392310480,0,1568000,2148000,670,670,520,330,272,-1072,-872,3877000,3876000,276,70,GOOD,DISCHARGING
1575392311034,0,1568000,2148000,680,680,520,330,272,-1072,-872,3877000,3876000,276,70,GOOD,DISCHARGING
1575392311544,0,1568000,2148000,680,680,520,330,272,-1072,-872,3877000,3876000,276,70,GOOD,DISCHARGING
1575392312054,0,1568000,2148000,680,680,520,330,272,-1072,-872,3877000,3876000,276,70,GOOD,DISCHARGING
1575392312613,0,1568000,2148000,640,640,520,330,272,-1072,-872,3877000,3876000,276,70,GOOD,DISCHARGING
1575392313138,0,1568000,2148000,640,640,520,330,272,-1072,-872,3877000,3876000,276,70,GOOD,DISCHARGING
1575392313681,0,1568000,2148000,650,650,520,344,276,-1031,-974,3858000,3858000,276,70,GOOD,DISCHARGING
1575392314198,0,1568000,2148000,670,670,520,344,276,-1031,-974,3858000,3858000,276,70,GOOD,DISCHARGING
1575392314709,0,1568000,2148000,670,670,520,344,276,-1031,-974,3858000,3858000,276,70,GOOD,DISCHARGING
1575392315220,0,1568000,2148000,670,670,520,344,276,-1031,-974,3858000,3858000,276,70,GOOD,DISCHARGING
1575392315729,0,1568000,2148000,670,670,520,344,276,-1031,-974,3858000,3858000,276,70,GOOD,DISCHARGING
1575392316252,0,1568000,2148000,670,670,520,344,276,-1031,-974,3858000,3858000,277,70,GOOD,DISCHARGING
1575392316767,0,1568000,2148000,680,680,520,344,276,-1031,-974,3858000,3858000,276,70,GOOD,DISCHARGING
1575392317329,0,1568000,2148000,670,670,520,344,276,-1031,-974,3858000,3858000,277,70,GOOD,DISCHARGING
1575392317840,0,1568000,2148000,640,640,520,344,276,-1031,-974,3858000,3858000,276,70,GOOD,DISCHARGING
1575392318401,0,1568000,2148000,660,660,520,344,276,-1031,-974,3858000,3858000,277,70,GOOD,DISCHARGING
1575392318928,0,1568000,2148000,670,670,520,344,276,-1031,-974,3858000,3858000,277,70,GOOD,DISCHARGING
1575392319441,0,1568000,2148000,670,670,520,344,276,-1031,-974,3858000,3858000,277,70,GOOD,DISCHARGING
1575392319965,0,1568000,2148000,680,680,520,344,276,-1031,-974,3858000,3858000,277,70,GOOD,DISCHARGING
1575392320481,0,1568000,2148000,660,660,520,344,276,-1031,-974,3858000,3858000,277,70,GOOD,DISCHARGING
1575392321053,0,1568000,2148000,640,640,520,344,276,-1031,-974,3858000,3858000,278,70,GOOD,DISCHARGING
1575392321570,0,1568000,2148000,650,650,530,344,276,-1031,-974,3858000,3858000,278,70,GOOD,DISCHARGING
1575392322082,0,1568000,2148000,670,670,520,344,276,-1031,-974,3858000,3858000,278,70,GOOD,DISCHARGING
1575392322596,0,1568000,2148000,670,670,520,344,276,-1031,-974,3858000,3858000,277,70,GOOD,DISCHARGING
1575392323150,0,1568000,2148000,650,650,520,344,276,-1031,-974,3858000,3858000,278,70,GOOD,DISCHARGING
1575392323660,0,1568000,2148000,680,680,520,344,276,-1031,-974,3858000,3858000,278,70,GOOD,DISCHARGING
1575392324179,0,1568000,2148000,650,650,520,344,276,-1031,-974,3858000,3858000,277,70,GOOD,DISCHARGING
1575392324745,0,1568000,2148000,670,670,520,344,276,-1031,-974,3858000,3858000,277,70,GOOD,DISCHARGING
1575392325295,0,1568000,2148000,670,670,530,344,276,-1031,-974,3858000,3858000,278,70,GOOD,DISCHARGING
1575392325816,0,1568000,2148000,680,680,520,344,276,-1031,-974,3858000,3858000,278,70,GOOD,DISCHARGING
1575392326334,0,1568000,2148000,680,680,530,344,276,-1031,-974,3858000,3858000,279,70,GOOD,DISCHARGING
1575392326847,0,1568000,2148000,680,680,530,344,276,-1031,-974,3858000,3858000,279,70,GOOD,DISCHARGING
1575392327365,0,1568000,2148000,650,650,530,344,276,-1031,-974,3858000,3858000,278,70,GOOD,DISCHARGING
1575392327921,0,1568000,2148000,660,660,530,344,276,-1031,-974,3858000,3858000,279,70,GOOD,DISCHARGING
1575392328438,0,1568000,2148000,680,680,520,344,276,-1031,-974,3858000,3858000,279,70,GOOD,DISCHARGING
1575392328966,0,1568000,2148000,670,670,530,344,276,-1031,-974,3858000,3858000,278,70,GOOD,DISCHARGING
1575392329501,0,1568000,2148000,670,670,530,344,276,-1031,-974,3858000,3858000,279,70,GOOD,DISCHARGING
1575392330016,0,1568000,2148000,680,680,520,344,276,-1031,-974,3858000,3858000,279,70,GOOD,DISCHARGING
1575392330553,0,1568000,2148000,660,660,530,344,276,-1031,-974,3858000,3858000,279,70,GOOD,DISCHARGING
1575392331064,0,1568000,2148000,650,650,530,344,276,-1031,-974,3858000,3858000,279,70,GOOD,DISCHARGING
1575392331578,0,1568000,2148000,660,680,530,344,276,-1031,-974,3858000,3858000,279,70,GOOD,DISCHARGING
1575392332157,0,1568000,2148000,660,660,530,344,276,-1031,-974,3858000,3858000,279,70,GOOD,DISCHARGING
1575392332668,0,1568000,2148000,670,670,530,344,276,-1031,-974,3858000,3858000,279,70,GOOD,DISCHARGING
1575392333193,0,1568000,2148000,670,680,530,344,276,-1031,-974,3858000,3858000,279,70,GOOD,DISCHARGING
1575392333704,0,1568000,2148000,680,680,530,344,276,-1031,-974,3858000,3858000,279,70,GOOD,DISCHARGING
1575392334224,0,1568000,2148000,680,680,530,344,276,-1031,-974,3858000,3858000,279,70,GOOD,DISCHARGING
1575392334742,0,1568000,2148000,690,690,530,344,276,-1031,-974,3858000,3858000,279,70,GOOD,DISCHARGING
1575392335259,0,1568000,2148000,650,650,530,344,276,-1031,-974,3858000,3858000,279,70,GOOD,DISCHARGING
1575392335813,0,1568000,2148000,630,630,530,344,276,-1031,-974,3858000,3858000,279,70,GOOD,DISCHARGING
1575392336333,0,1568000,2148000,660,660,530,344,276,-1031,-974,3858000,3858000,279,70,GOOD,DISCHARGING
1575392336897,0,1568000,2148000,680,670,530,344,276,-1031,-974,3858000,3858000,279,70,GOOD,DISCHARGING
1575392337461,0,1568000,2148000,640,660,530,344,276,-1031,-974,3858000,3858000,280,70,GOOD,DISCHARGING
1575392337980,0,1568000,2148000,670,670,530,344,276,-1031,-974,3858000,3858000,280,70,GOOD,DISCHARGING
1575392338491,0,1568000,2148000,670,680,530,344,276,-1031,-974,3858000,3858000,279,70,GOOD,DISCHARGING
1575392339048,0,1568000,2148000,690,690,530,344,276,-1031,-974,3858000,3858000,279,70,GOOD,DISCHARGING
1575392339629,0,1568000,2148000,650,670,530,344,276,-1031,-974,3858000,3858000,280,70,GOOD,DISCHARGING
1575392340196,0,1568000,2148000,680,680,530,344,276,-1031,-974,3858000,3858000,280,70,GOOD,DISCHARGING
1575392340733,0,1568000,2148000,670,660,530,344,276,-1031,-974,3858000,3858000,280,70,GOOD,DISCHARGING
1575392341258,0,1568000,2148000,650,650,530,344,276,-1031,-974,3858000,3858000,280,70,GOOD,DISCHARGING
1575392341780,0,1568000,2148000,650,650,530,344,276,-1031,-974,3858000,3858000,280,70,GOOD,DISCHARGING
1575392342297,0,1568000,2148000,660,650,530,344,276,-1031,-974,3858000,3858000,280,70,GOOD,DISCHARGING
1575392342812,0,1568000,2148000,670,670,530,344,276,-1031,-974,3858000,3858000,280,70,GOOD,DISCHARGING
1575392343369,0,1568000,2148000,680,690,530,344,276,-1031,-974,3858000,3858000,280,70,GOOD,DISCHARGING
1575392343949,0,1568000,2148000,660,650,530,353,281,-942,-991,3839000,3838000,280,70,GOOD,DISCHARGING
1575392344497,0,1568000,2148000,650,680,530,353,281,-942,-991,3839000,3838000,280,70,GOOD,DISCHARGING
1575392345032,0,1568000,2148000,680,680,530,353,281,-942,-991,3839000,3838000,281,70,GOOD,DISCHARGING
1575392345551,0,1568000,2148000,690,690,530,353,281,-942,-991,3839000,3838000,281,70,GOOD,DISCHARGING
1575392346069,0,1568000,2148000,690,690,530,353,281,-942,-991,3839000,3838000,281,70,GOOD,DISCHARGING
1575392346625,0,1568000,2148000,650,650,530,353,281,-942,-991,3839000,3838000,281,70,GOOD,DISCHARGING
1575392347196,0,1568000,2148000,680,680,530,353,281,-942,-991,3839000,3838000,281,70,GOOD,DISCHARGING
1575392347745,0,1568000,2148000,670,670,530,353,281,-942,-991,3839000,3838000,281,70,GOOD,DISCHARGING
1575392348301,0,1568000,2148000,660,660,530,353,281,-942,-991,3839000,3838000,281,70,GOOD,DISCHARGING
1575392348837,0,1568000,2148000,680,680,530,353,281,-942,-991,3839000,3838000,281,70,GOOD,DISCHARGING
1575392349348,0,1568000,2148000,670,670,540,353,281,-942,-991,3839000,3838000,281,70,GOOD,DISCHARGING
1575392349913,0,1568000,2148000,680,680,530,353,281,-942,-991,3839000,3838000,282,70,GOOD,DISCHARGING
1575392350430,0,1568000,2148000,680,670,530,353,281,-942,-991,3839000,3838000,281,70,GOOD,DISCHARGING
1575392351009,0,1568000,2148000,670,680,530,353,281,-942,-991,3839000,3838000,282,70,GOOD,DISCHARGING
1575392351521,0,1568000,2148000,680,680,530,353,281,-942,-991,3839000,3838000,282,70,GOOD,DISCHARGING
1575392352049,0,1568000,2148000,690,690,530,353,281,-942,-991,3839000,3838000,282,70,GOOD,DISCHARGING
1575392352566,0,1568000,2148000,680,680,540,353,281,-942,-991,3839000,3838000,282,70,GOOD,DISCHARGING
1575392353076,0,1568000,2148000,660,660,530,353,281,-942,-991,3839000,3838000,282,70,GOOD,DISCHARGING
1575392353637,0,1568000,2148000,680,680,530,353,281,-942,-991,3839000,3838000,282,70,GOOD,DISCHARGING
1575392354185,0,1568000,2148000,680,680,530,353,281,-942,-991,3839000,3838000,282,70,GOOD,DISCHARGING
1575392354753,0,1568000,2148000,680,680,540,353,281,-942,-991,3839000,3838000,283,70,GOOD,DISCHARGING
1575392355269,0,1568000,2148000,660,660,540,353,281,-942,-991,3839000,3838000,282,70,GOOD,DISCHARGING
1575392355837,0,1568000,2148000,680,680,540,353,281,-942,-991,3839000,3838000,283,70,GOOD,DISCHARGING
1575392356356,0,1568000,2148000,690,690,540,353,281,-942,-991,3839000,3838000,282,70,GOOD,DISCHARGING
1575392356921,0,1568000,2148000,680,680,540,353,281,-942,-991,3839000,3838000,283,70,GOOD,DISCHARGING
1575392357437,0,1568000,2148000,660,660,540,353,281,-942,-991,3839000,3838000,283,70,GOOD,DISCHARGING
1575392357952,0,1568000,2148000,660,660,540,353,281,-942,-991,3839000,3838000,283,70,GOOD,DISCHARGING
1575392358462,0,1568000,2148000,680,680,540,353,281,-942,-991,3839000,3838000,283,70,GOOD,DISCHARGING
1575392358979,0,1568000,2148000,690,690,530,353,281,-942,-991,3839000,3838000,283,70,GOOD,DISCHARGING
1575392359506,0,1568000,2148000,650,650,540,353,281,-942,-991,3839000,3838000,283,70,GOOD,DISCHARGING
1575392360017,0,1568000,2148000,660,680,540,353,281,-942,-991,3839000,3838000,283,70,GOOD,DISCHARGING
1575392360556,0,1568000,2148000,690,690,540,353,281,-942,-991,3839000,3838000,283,70,GOOD,DISCHARGING
1575392361101,0,1568000,2148000,670,670,540,353,281,-942,-991,3839000,3838000,283,70,GOOD,DISCHARGING
1575392361618,0,1568000,2148000,680,680,540,353,281,-942,-991,3839000,3838000,283,70,GOOD,DISCHARGING
1575392362185,0,1568000,2148000,670,670,540,353,281,-942,-991,3839000,3838000,283,70,GOOD,DISCHARGING
1575392362702,0,1568000,2148000,680,680,540,353,281,-942,-991,3839000,3838000,283,70,GOOD,DISCHARGING
1575392363247,0,1568000,2148000,680,680,540,353,281,-942,-991,3839000,3838000,284,70,GOOD,DISCHARGING
1575392363761,0,1568000,2148000,670,670,540,353,281,-942,-991,3839000,3838000,284,70,GOOD,DISCHARGING
1575392364278,0,1568000,2148000,670,670,540,353,281,-942,-991,3839000,3838000,283,70,GOOD,DISCHARGING
1575392364853,0,1568000,2148000,650,650,540,353,281,-942,-991,3839000,3838000,284,70,GOOD,DISCHARGING
1575392365370,0,1568000,2148000,680,680,540,353,281,-942,-991,3839000,3838000,284,70,GOOD,DISCHARGING
1575392365894,0,1568000,2148000,690,700,540,353,281,-942,-991,3839000,3838000,284,70,GOOD,DISCHARGING
1575392366412,0,1568000,2148000,700,700,540,353,281,-942,-991,3839000,3838000,284,70,GOOD,DISCHARGING
1575392366958,0,1568000,2148000,690,690,540,353,281,-942,-991,3839000,3838000,284,70,GOOD,DISCHARGING
1575392367479,0,1568000,2148000,660,660,540,353,281,-942,-991,3839000,3838000,284,70,GOOD,DISCHARGING
1575392368019,0,1568000,2148000,660,660,540,353,281,-942,-991,3839000,3838000,284,70,GOOD,DISCHARGING
