timestamp,iteration,little,big,thermalzone_temp0,thermalzone_temp1,thermalzone_temp2,thermalzone_temp3,thermalzone_temp4,current_now,current_avg,voltage_now,voltage_avg,batt_temp,capacity,health,status
1575307898773,0,1568000,2148000,410,410,330,319,294,368,366,4257000,4256000,294,94,GOOD,CHARGING
1575307899300,0,1568000,2148000,540,540,370,319,294,368,366,4257000,4256000,294,94,GOOD,CHARGING
1575307899887,0,1568000,2148000,580,580,400,319,294,368,366,4257000,4256000,294,94,GOOD,CHARGING
1575307900450,0,1568000,2148000,590,590,420,319,294,368,366,4257000,4256000,294,94,GOOD,CHARGING
1575307901030,0,1568000,2148000,610,610,440,319,294,368,366,4257000,4256000,294,94,GOOD,CHARGING
1575307901611,0,1568000,2148000,630,630,450,319,294,368,366,4257000,4256000,294,94,GOOD,CHARGING
1575307902179,0,1568000,2148000,640,640,460,319,294,368,366,4257000,4256000,294,94,GOOD,DISCHARGING
1575307902728,0,1568000,2148000,640,640,470,322,294,-1006,-239,4160000,4160000,294,94,GOOD,DISCHARGING
1575307903275,0,1568000,2148000,650,650,470,322,294,-1006,-239,4160000,4160000,294,94,GOOD,DISCHARGING
1575307903815,0,1568000,2148000,660,660,480,322,294,-1006,-239,4160000,4160000,293,94,GOOD,DISCHARGING
1575307904395,0,1568000,2148000,670,670,490,322,294,-1006,-239,4160000,4160000,293,94,GOOD,DISCHARGING
1575307904951,0,1568000,2148000,670,670,500,322,294,-1006,-239,4160000,4160000,293,94,GOOD,DISCHARGING
1575307905535,0,1568000,2148000,680,680,500,322,294,-1006,-239,4160000,4160000,293,94,GOOD,DISCHARGING
1575307906077,0,1568000,2148000,680,680,500,322,294,-1006,-239,4160000,4160000,293,94,GOOD,DISCHARGING
1575307906659,0,1568000,2148000,680,690,510,322,294,-1006,-239,4160000,4160000,293,94,GOOD,DISCHARGING
1575307907188,0,1568000,2148000,690,690,510,322,294,-1006,-239,4160000,4160000,293,94,GOOD,DISCHARGING
1575307907717,0,1568000,2148000,700,700,510,322,294,-1006,-239,4160000,4160000,293,94,GOOD,DISCHARGING
1575307908266,0,1568000,2148000,700,700,520,322,294,-1006,-239,4160000,4160000,293,94,GOOD,DISCHARGING
1575307908867,0,1568000,2148000,700,700,520,322,294,-1006,-239,4160000,4160000,293,94,GOOD,DISCHARGING
1575307909414,0,1568000,2148000,700,700,520,322,294,-1006,-239,4160000,4160000,293,94,GOOD,DISCHARGING
1575307909952,0,1568000,2148000,710,710,530,322,294,-1006,-239,4160000,4160000,293,94,GOOD,DISCHARGING
1575307910534,0,1568000,2148000,710,710,530,322,294,-1006,-239,4160000,4160000,293,94,GOOD,DISCHARGING
1575307911079,0,1568000,2148000,710,710,530,322,294,-1006,-239,4160000,4160000,293,94,GOOD,DISCHARGING
1575307911662,0,1568000,2148000,720,720,530,322,294,-1006,-239,4160000,4160000,293,94,GOOD,DISCHARGING
1575307912229,0,1568000,2148000,710,710,530,322,294,-1006,-239,4160000,4160000,293,94,GOOD,DISCHARGING
1575307912811,0,1568000,2148000,720,720,540,322,294,-1006,-239,4160000,4160000,294,94,GOOD,DISCHARGING
1575307913335,0,1568000,2148000,720,720,540,322,294,-1006,-239,4160000,4160000,293,94,GOOD,DISCHARGING
1575307913903,0,1568000,2148000,720,720,540,322,294,-1006,-239,4160000,4160000,293,94,GOOD,DISCHARGING
1575307914462,0,1568000,2148000,720,720,540,322,294,-1006,-239,4160000,4160000,293,94,GOOD,DISCHARGING
1575307915042,0,1568000,2148000,720,720,540,322,294,-1006,-239,4160000,4160000,293,94,GOOD,DISCHARGING
1575307915579,0,1568000,2148000,730,730,550,322,294,-1006,-239,4160000,4160000,293,94,GOOD,DISCHARGING
1575307916150,0,1568000,2148000,730,730,550,322,294,-1006,-239,4160000,4160000,294,94,GOOD,DISCHARGING
1575307916693,0,1568000,2148000,730,730,550,322,294,-1006,-239,4160000,4160000,293,94,GOOD,DISCHARGING
1575307917255,0,1568000,2148000,730,730,550,322,294,-1006,-239,4160000,4160000,294,94,GOOD,DISCHARGING
1575307917799,0,1568000,2148000,730,730,550,322,294,-1006,-239,4160000,4160000,294,94,GOOD,DISCHARGING
1575307918374,0,1568000,2148000,730,730,550,322,294,-1006,-239,4160000,4160000,294,94,GOOD,DISCHARGING
1575307918932,0,1568000,2148000,740,740,560,322,294,-1006,-239,4160000,4160000,294,94,GOOD,DISCHARGING
1575307919502,0,1568000,2148000,740,740,560,322,294,-1006,-239,4160000,4160000,294,94,GOOD,DISCHARGING
1575307920048,0,1568000,2148000,740,740,560,322,294,-1006,-239,4160000,4160000,294,94,GOOD,DISCHARGING
1575307920578,0,1568000,2148000,740,740,560,322,294,-1006,-239,4160000,4160000,294,94,GOOD,DISCHARGING
1575307921142,0,1568000,2148000,740,740,560,322,294,-1006,-239,4160000,4160000,294,94,GOOD,DISCHARGING
1575307921687,0,1568000,2148000,740,740,560,322,294,-1006,-239,4160000,4160000,294,94,GOOD,DISCHARGING
1575307922206,0,1568000,2148000,740,740,560,322,294,-1006,-239,4160000,4160000,294,94,GOOD,DISCHARGING
1575307922754,0,1568000,2148000,740,740,560,322,294,-1006,-239,4160000,4160000,294,94,GOOD,DISCHARGING
1575307923298,0,1568000,2148000,740,740,560,322,294,-1006,-239,4160000,4160000,294,94,GOOD,DISCHARGING
1575307923862,0,1568000,2148000,740,740,560,322,294,-1006,-239,4160000,4160000,294,94,GOOD,DISCHARGING
1575307924401,0,1568000,2148000,750,750,560,322,294,-1006,-239,4160000,4160000,294,94,GOOD,DISCHARGING
1575307924972,0,1568000,2148000,750,750,570,322,294,-1006,-239,4160000,4160000,294,94,GOOD,DISCHARGING
1575307925521,0,1568000,2148000,750,750,570,322,294,-1006,-239,4160000,4160000,294,94,GOOD,DISCHARGING
1575307926097,0,1568000,2148000,750,750,570,322,294,-1006,-239,4160000,4160000,295,94,GOOD,DISCHARGING
1575307926636,0,1568000,2148000,750,750,570,322,294,-1006,-239,4160000,4160000,295,94,GOOD,DISCHARGING
1575307927159,0,1568000,2148000,750,750,570,322,294,-1006,-239,4160000,4160000,295,94,GOOD,DISCHARGING
1575307927742,0,1568000,2148000,750,750,570,322,294,-1006,-239,4160000,4160000,295,94,GOOD,DISCHARGING
1575307928273,0,1568000,2148000,750,750,570,322,294,-1006,-239,4160000,4160000,295,94,GOOD,DISCHARGING
1575307928826,0,1568000,2148000,750,750,570,322,294,-1006,-239,4160000,4160000,295,94,GOOD,DISCHARGING
1575307929350,0,1568000,2148000,750,750,570,322,294,-1006,-239,4160000,4160000,295,94,GOOD,DISCHARGING
1575307929929,0,1568000,2148000,750,750,570,322,294,-1006,-239,4160000,4160000,296,94,GOOD,DISCHARGING
1575307930481,0,1568000,2148000,750,750,570,322,294,-1006,-239,4160000,4160000,295,94,GOOD,DISCHARGING
1575307931046,0,1568000,2148000,750,750,580,322,294,-1006,-239,4160000,4160000,296,94,GOOD,DISCHARGING
1575307931585,0,1568000,2148000,750,750,570,322,294,-1006,-239,4160000,4160000,296,94,GOOD,DISCHARGING
1575307932143,0,1568000,2148000,760,750,580,322,294,-1006,-239,4160000,4160000,296,94,GOOD,DISCHARGING
1575307932703,0,1568000,2148000,760,760,580,363,296,-1004,-1000,4054000,4054000,296,94,GOOD,DISCHARGING
1575307933222,0,1568000,2148000,760,760,580,363,296,-1004,-1000,4054000,4054000,296,93,GOOD,DISCHARGING
1575307933750,0,1568000,2148000,760,760,580,363,296,-1004,-1000,4054000,4054000,297,93,GOOD,DISCHARGING
1575307934266,0,1568000,2148000,760,760,580,363,296,-1004,-1000,4054000,4054000,296,93,GOOD,DISCHARGING
1575307934838,0,1568000,2148000,760,760,580,363,296,-1004,-1000,4054000,4054000,296,93,GOOD,DISCHARGING
1575307935418,0,1568000,2148000,760,760,580,363,296,-1004,-1000,4054000,4054000,296,93,GOOD,DISCHARGING
1575307935998,0,1568000,2148000,760,760,580,363,296,-1004,-1000,4054000,4054000,297,93,GOOD,DISCHARGING
1575307936535,0,1568000,2148000,760,760,580,363,296,-1004,-1000,4054000,4054000,297,93,GOOD,DISCHARGING
1575307937093,0,1568000,2148000,760,760,580,363,296,-1004,-1000,4054000,4054000,297,93,GOOD,DISCHARGING
1575307937641,0,1568000,2148000,760,760,580,363,296,-1004,-1000,4054000,4054000,297,93,GOOD,DISCHARGING
1575307938222,0,1568000,2148000,760,760,580,363,296,-1004,-1000,4054000,4054000,297,93,GOOD,DISCHARGING
1575307938773,0,1568000,2148000,760,760,580,363,296,-1004,-1000,4054000,4054000,297,93,GOOD,DISCHARGING
1575307939301,0,1568000,2148000,760,760,580,363,296,-1004,-1000,4054000,4054000,297,93,GOOD,DISCHARGING
1575307939848,0,1568000,2148000,760,760,580,363,296,-1004,-1000,4054000,4054000,297,93,GOOD,DISCHARGING
1575307940407,0,1568000,2148000,760,760,580,363,296,-1004,-1000,4054000,4054000,298,93,GOOD,DISCHARGING
1575307940956,0,1568000,2148000,760,760,580,363,296,-1004,-1000,4054000,4054000,298,93,GOOD,DISCHARGING
1575307941524,0,1568000,2148000,760,760,580,363,296,-1004,-1000,4054000,4054000,298,93,GOOD,DISCHARGING
1575307942063,0,1568000,2148000,760,760,580,363,296,-1004,-1000,4054000,4054000,298,93,GOOD,DISCHARGING
1575307942618,0,1568000,2148000,760,760,580,363,296,-1004,-1000,4054000,4054000,298,93,GOOD,DISCHARGING
1575307943161,0,1568000,2148000,760,760,580,363,296,-1004,-1000,4054000,4054000,298,93,GOOD,DISCHARGING
1575307943727,0,1568000,2148000,760,760,590,363,296,-1004,-1000,4054000,4054000,298,93,GOOD,DISCHARGING
1575307944262,0,1568000,2148000,760,760,590,363,296,-1004,-1000,4054000,4054000,298,93,GOOD,DISCHARGING
1575307944783,0,1568000,2148000,760,760,590,363,296,-1004,-1000,4054000,4054000,298,93,GOOD,DISCHARGING
1575307945317,0,1568000,2148000,760,760,590,363,296,-1004,-1000,4054000,4054000,298,93,GOOD,DISCHARGING
1575307945889,0,1568000,2148000,760,760,580,363,296,-1004,-1000,4054000,4054000,298,93,GOOD,DISCHARGING
1575307946437,0,1568000,2148000,760,760,580,363,296,-1004,-1000,4054000,4054000,298,93,GOOD,DISCHARGING
1575307946994,0,1568000,2148000,760,760,590,363,296,-1004,-1000,4054000,4054000,298,93,GOOD,DISCHARGING
1575307947570,0,1568000,2148000,760,760,590,363,296,-1004,-1000,4054000,4054000,299,93,GOOD,DISCHARGING
1575307948093,0,1568000,2148000,760,760,590,363,296,-1004,-1000,4054000,4054000,299,93,GOOD,DISCHARGING
1575307948630,0,1568000,2148000,770,760,590,363,296,-1004,-1000,4054000,4054000,299,93,GOOD,DISCHARGING
1575307949194,0,1568000,2148000,760,760,590,363,296,-1004,-1000,4054000,4054000,299,93,GOOD,DISCHARGING
1575307949764,0,1568000,2148000,750,750,590,363,296,-1004,-1000,4054000,4054000,299,93,GOOD,DISCHARGING
1575307950329,0,1568000,2148000,760,760,590,363,296,-1004,-1000,4054000,4054000,300,93,GOOD,DISCHARGING
1575307950893,0,1568000,2148000,760,760,590,363,296,-1004,-1000,4054000,4054000,300,93,GOOD,DISCHARGING
1575307951406,0,1568000,2148000,760,760,590,363,296,-1004,-1000,4054000,4054000,300,93,GOOD,DISCHARGING
1575307951964,0,1568000,2148000,760,760,590,363,296,-1004,-1000,4054000,4054000,300,93,GOOD,DISCHARGING
1575307952478,0,1568000,2148000,760,760,590,363,296,-1004,-1000,4054000,4054000,300,93,GOOD,DISCHARGING
1575307953014,0,1568000,2148000,760,760,590,363,296,-1004,-1000,4054000,4054000,300,93,GOOD,DISCHARGING
1575307953539,0,1568000,2148000,760,760,590,363,296,-1004,-1000,4054000,4054000,300,93,GOOD,DISCHARGING
1575307954117,0,1568000,2148000,760,760,590,363,296,-1004,-1000,4054000,4054000,300,93,GOOD,DISCHARGING
1575307954697,0,1568000,2148000,750,750,590,363,296,-1004,-1000,4054000,4054000,301,93,GOOD,DISCHARGING
1575307955221,0,1568000,2148000,760,760,590,363,296,-1004,-1000,4054000,4054000,301,93,GOOD,DISCHARGING
1575307955738,0,1568000,2148000,760,760,590,363,296,-1004,-1000,4054000,4054000,301,93,GOOD,DISCHARGING
1575307956312,0,1568000,2148000,760,760,590,363,296,-1004,-1000,4054000,4054000,301,93,GOOD,DISCHARGING
1575307956877,0,1568000,2148000,760,760,590,363,296,-1004,-1000,4054000,4054000,301,93,GOOD,DISCHARGING
1575307957398,0,1568000,2148000,760,770,590,363,296,-1004,-1000,4054000,4054000,301,93,GOOD,DISCHARGING
1575307957934,0,1568000,2148000,760,760,590,363,296,-1004,-1000,4054000,4054000,301,93,GOOD,DISCHARGING
1575307958514,0,1568000,2148000,760,760,590,363,296,-1004,-1000,4054000,4054000,301,93,GOOD,DISCHARGING
1575307959041,0,1568000,2148000,760,760,590,363,296,-1004,-1000,4054000,4054000,301,93,GOOD,DISCHARGING
1575307959589,0,1568000,2148000,760,760,590,363,296,-1004,-1000,4054000,4054000,301,93,GOOD,DISCHARGING
1575307960118,0,1568000,2148000,760,760,590,363,296,-1004,-1000,4054000,4054000,301,93,GOOD,DISCHARGING
1575307960692,0,1568000,2148000,760,760,590,363,296,-1004,-1000,4054000,4054000,302,93,GOOD,DISCHARGING
1575307961228,0,1568000,2148000,760,760,590,363,296,-1004,-1000,4054000,4054000,302,93,GOOD,DISCHARGING
1575307961762,0,1568000,2148000,760,760,590,363,296,-1004,-1000,4054000,4054000,302,93,GOOD,DISCHARGING
1575307962318,0,1568000,2148000,760,760,590,363,296,-1004,-1000,4054000,4054000,302,93,GOOD,DISCHARGING
1575307962838,0,1568000,2148000,760,760,590,363,296,-1004,-1000,4054000,4054000,302,93,GOOD,DISCHARGING
1575307963394,0,1568000,2148000,760,760,590,381,302,-1008,-1098,4034000,4034000,302,93,GOOD,DISCHARGING
1575307963957,0,1568000,2148000,770,770,590,381,302,-1008,-1098,4034000,4034000,302,93,GOOD,DISCHARGING
1575307964486,0,1568000,2148000,760,760,590,381,302,-1008,-1098,4034000,4034000,303,93,GOOD,DISCHARGING
1575307965013,0,1568000,2148000,760,760,590,381,302,-1008,-1098,4034000,4034000,302,93,GOOD,DISCHARGING
1575307965573,0,1568000,2148000,760,760,590,381,302,-1008,-1098,4034000,4034000,303,93,GOOD,DISCHARGING
1575307966113,0,1568000,2148000,760,760,590,381,302,-1008,-1098,4034000,4034000,303,93,GOOD,DISCHARGING
1575307966632,0,1568000,2148000,760,760,590,381,302,-1008,-1098,4034000,4034000,303,93,GOOD,DISCHARGING
1575307967177,0,1568000,2148000,760,760,590,381,302,-1008,-1098,4034000,4034000,303,93,GOOD,DISCHARGING
1575307967758,0,1568000,2148000,760,760,590,381,302,-1008,-1098,4034000,4034000,303,93,GOOD,DISCHARGING
1575307968278,0,1568000,2148000,760,760,590,381,302,-1008,-1098,4034000,4034000,303,93,GOOD,DISCHARGING
1575307968833,0,1568000,2148000,770,770,590,381,302,-1008,-1098,4034000,4034000,303,93,GOOD,DISCHARGING
1575307969386,0,1568000,2148000,760,760,590,381,302,-1008,-1098,4034000,4034000,303,93,GOOD,DISCHARGING
1575307969958,0,1568000,2148000,760,750,590,381,302,-1008,-1098,4034000,4034000,304,93,GOOD,DISCHARGING
1575307970534,0,1568000,2148000,760,760,590,381,302,-1008,-1098,4034000,4034000,304,93,GOOD,DISCHARGING
1575307971063,0,1568000,2148000,750,750,590,381,302,-1008,-1098,4034000,4034000,304,93,GOOD,DISCHARGING
1575307971629,0,1568000,2148000,760,760,590,381,302,-1008,-1098,4034000,4034000,305,93,GOOD,DISCHARGING
1575307972162,0,1568000,2148000,760,760,590,381,302,-1008,-1098,4034000,4034000,304,93,GOOD,DISCHARGING
1575307972719,0,1568000,2148000,760,760,590,381,302,-1008,-1098,4034000,4034000,305,93,GOOD,DISCHARGING
1575307973269,0,1568000,2148000,760,760,590,381,302,-1008,-1098,4034000,4034000,305,93,GOOD,DISCHARGING
1575307973806,0,1568000,2148000,770,770,590,381,302,-1008,-1098,4034000,4034000,305,93,GOOD,DISCHARGING
1575307974386,0,1568000,2148000,760,760,590,381,302,-1008,-1098,4034000,4034000,305,93,GOOD,DISCHARGING
1575307974937,0,1568000,2148000,760,760,590,381,302,-1008,-1098,4034000,4034000,305,93,GOOD,DISCHARGING
1575307975502,0,1568000,2148000,760,770,590,381,302,-1008,-1098,4034000,4034000,305,93,GOOD,DISCHARGING
1575307976078,0,1568000,2148000,760,760,590,381,302,-1008,-1098,4034000,4034000,305,93,GOOD,DISCHARGING
1575307976650,0,1568000,2148000,760,760,590,381,302,-1008,-1098,4034000,4034000,305,93,GOOD,DISCHARGING
1575307977190,0,1568000,2148000,770,770,590,381,302,-1008,-1098,4034000,4034000,305,93,GOOD,DISCHARGING
1575307977733,0,1568000,2148000,760,750,590,381,302,-1008,-1098,4034000,4034000,305,93,GOOD,DISCHARGING
1575307978306,0,1568000,2148000,760,760,590,381,302,-1008,-1098,4034000,4034000,305,93,GOOD,DISCHARGING
1575307978841,0,1568000,2148000,760,760,590,381,302,-1008,-1098,4034000,4034000,306,93,GOOD,DISCHARGING
1575307979365,0,1568000,2148000,760,760,590,381,302,-1008,-1098,4034000,4034000,306,93,GOOD,DISCHARGING
1575307979894,0,1568000,2148000,770,770,590,381,302,-1008,-1098,4034000,4034000,306,93,GOOD,DISCHARGING
1575307980443,0,1568000,2148000,760,760,590,381,302,-1008,-1098,4034000,4034000,305,93,GOOD,DISCHARGING
1575307981021,0,1568000,2148000,760,760,590,381,302,-1008,-1098,4034000,4034000,306,93,GOOD,DISCHARGING
1575307981583,0,1568000,2148000,760,760,600,381,302,-1008,-1098,4034000,4034000,306,93,GOOD,DISCHARGING
1575307982162,0,1568000,2148000,760,760,600,381,302,-1008,-1098,4034000,4034000,306,93,GOOD,DISCHARGING
1575307982718,0,1568000,2148000,750,750,590,381,302,-1008,-1098,4034000,4034000,306,93,GOOD,DISCHARGING
1575307983257,0,1568000,2148000,750,750,600,381,302,-1008,-1098,4034000,4034000,307,93,GOOD,DISCHARGING
1575307983796,0,1568000,2148000,760,760,590,381,302,-1008,-1098,4034000,4034000,307,93,GOOD,DISCHARGING
1575307984333,0,1568000,2148000,760,760,600,381,302,-1008,-1098,4034000,4034000,307,93,GOOD,DISCHARGING
1575307984853,0,1568000,2148000,750,750,600,381,302,-1008,-1098,4034000,4034000,307,93,GOOD,DISCHARGING
1575307985393,0,1568000,2148000,760,750,600,381,302,-1008,-1098,4034000,4034000,307,93,GOOD,DISCHARGING
1575307985974,0,1568000,2148000,760,760,600,381,302,-1008,-1098,4034000,4034000,307,93,GOOD,DISCHARGING
1575307986510,0,1568000,2148000,750,760,600,381,302,-1008,-1098,4034000,4034000,307,93,GOOD,DISCHARGING
1575307987069,0,1568000,2148000,760,760,600,381,302,-1008,-1098,4034000,4034000,307,93,GOOD,DISCHARGING
1575307987637,0,1568000,2148000,760,760,600,381,302,-1008,-1098,4034000,4034000,308,93,GOOD,DISCHARGING
1575307988161,0,1568000,2148000,760,760,600,381,302,-1008,-1098,4034000,4034000,308,93,GOOD,DISCHARGING
1575307988722,0,1568000,2148000,760,760,600,381,302,-1008,-1098,4034000,4034000,307,93,GOOD,DISCHARGING
1575307989301,0,1568000,2148000,760,760,600,381,302,-1008,-1098,4034000,4034000,308,93,GOOD,DISCHARGING
1575307989850,0,1568000,2148000,760,760,600,381,302,-1008,-1098,4034000,4034000,308,93,GOOD,DISCHARGING
1575307990422,0,1568000,2148000,760,760,600,381,302,-1008,-1098,4034000,4034000,309,93,GOOD,DISCHARGING
1575307990953,0,1568000,2148000,750,750,600,381,302,-1008,-1098,4034000,4034000,309,93,GOOD,DISCHARGING
1575307991474,0,1568000,2148000,760,770,600,381,302,-1008,-1098,4034000,4034000,308,93,GOOD,DISCHARGING
1575307992042,0,1568000,2148000,760,760,600,381,302,-1008,-1098,4034000,4034000,308,93,GOOD,DISCHARGING
1575307992605,0,1568000,2148000,750,750,600,381,302,-1008,-1098,4034000,4034000,309,93,GOOD,DISCHARGING
1575307993136,0,1568000,2148000,770,770,600,392,309,-1041,-1117,4028000,4028000,309,93,GOOD,DISCHARGING
1575307993695,0,1568000,2148000,760,760,600,392,309,-1041,-1117,4028000,4028000,309,93,GOOD,DISCHARGING
1575307994238,0,1568000,2148000,760,760,600,392,309,-1041,-1117,4028000,4028000,309,93,GOOD,DISCHARGING
1575307994765,0,1568000,2148000,760,760,600,392,309,-1041,-1117,4028000,4028000,309,93,GOOD,DISCHARGING
1575307995308,0,1568000,2148000,770,770,600,392,309,-1041,-1117,4028000,4028000,309,93,GOOD,DISCHARGING
1575307995824,0,1568000,2148000,760,760,600,392,309,-1041,-1117,4028000,4028000,309,93,GOOD,DISCHARGING
1575307996349,0,1568000,2148000,750,750,600,392,309,-1041,-1117,4028000,4028000,309,93,GOOD,DISCHARGING
1575307996918,0,1568000,2148000,760,760,600,392,309,-1041,-1117,4028000,4028000,309,93,GOOD,DISCHARGING
1575307997467,0,1568000,2148000,760,760,600,392,309,-1041,-1117,4028000,4028000,309,93,GOOD,DISCHARGING
1575307998038,0,1568000,2148000,760,760,600,392,309,-1041,-1117,4028000,4028000,309,93,GOOD,DISCHARGING
1575307998578,0,1568000,2148000,760,760,600,392,309,-1041,-1117,4028000,4028000,310,93,GOOD,DISCHARGING
1575307999140,0,1568000,2148000,750,750,600,392,309,-1041,-1117,4028000,4028000,310,93,GOOD,DISCHARGING
1575307999682,0,1568000,2148000,770,770,600,392,309,-1041,-1117,4028000,4028000,310,93,GOOD,DISCHARGING
1575308000241,0,1568000,2148000,750,750,600,392,309,-1041,-1117,4028000,4028000,310,93,GOOD,DISCHARGING
1575308000801,0,1568000,2148000,750,750,600,392,309,-1041,-1117,4028000,4028000,310,93,GOOD,DISCHARGING
1575308001358,0,1568000,2148000,770,760,600,392,309,-1041,-1117,4028000,4028000,310,93,GOOD,DISCHARGING
1575308001902,0,1568000,2148000,750,750,600,392,309,-1041,-1117,4028000,4028000,310,93,GOOD,DISCHARGING
1575308002418,0,1568000,2148000,750,750,600,392,309,-1041,-1117,4028000,4028000,310,93,GOOD,DISCHARGING
1575308002973,0,1568000,2148000,760,760,600,392,309,-1041,-1117,4028000,4028000,310,93,GOOD,DISCHARGING
1575308003518,0,1568000,2148000,760,760,600,392,309,-1041,-1117,4028000,4028000,311,93,GOOD,DISCHARGING
1575308004054,0,1568000,2148000,770,770,600,392,309,-1041,-1117,4028000,4028000,311,93,GOOD,DISCHARGING
1575308004571,0,1568000,2148000,760,760,600,392,309,-1041,-1117,4028000,4028000,311,93,GOOD,DISCHARGING
1575308005150,0,1568000,2148000,760,760,600,392,309,-1041,-1117,4028000,4028000,311,93,GOOD,DISCHARGING
1575308005677,0,1568000,2148000,750,750,600,392,309,-1041,-1117,4028000,4028000,311,93,GOOD,DISCHARGING
1575308006201,0,1568000,2148000,760,760,600,392,309,-1041,-1117,4028000,4028000,311,93,GOOD,DISCHARGING
1575308006770,0,1568000,2148000,750,750,600,392,309,-1041,-1117,4028000,4028000,311,93,GOOD,DISCHARGING
1575308007329,0,1568000,2148000,760,770,600,392,309,-1041,-1117,4028000,4028000,312,93,GOOD,DISCHARGING
1575308007854,0,1568000,2148000,760,760,600,392,309,-1041,-1117,4028000,4028000,311,93,GOOD,DISCHARGING
1575308008422,0,1568000,2148000,750,750,600,392,309,-1041,-1117,4028000,4028000,311,93,GOOD,DISCHARGING
1575308008993,0,1568000,2148000,760,760,600,392,309,-1041,-1117,4028000,4028000,312,93,GOOD,DISCHARGING
1575308009566,0,1568000,2148000,760,760,600,392,309,-1041,-1117,4028000,4028000,312,93,GOOD,DISCHARGING
1575308010133,0,1568000,2148000,760,770,600,392,309,-1041,-1117,4028000,4028000,312,93,GOOD,DISCHARGING
1575308010714,0,1568000,2148000,760,760,600,392,309,-1041,-1117,4028000,4028000,312,93,GOOD,DISCHARGING
1575308011242,0,1568000,2148000,760,760,600,392,309,-1041,-1117,4028000,4028000,312,93,GOOD,DISCHARGING
1575308011795,0,1568000,2148000,750,750,600,392,309,-1041,-1117,4028000,4028000,313,93,GOOD,DISCHARGING
1575308012336,0,1568000,2148000,760,760,600,392,309,-1041,-1117,4028000,4028000,312,93,GOOD,DISCHARGING
1575308012918,0,1568000,2148000,750,750,600,392,309,-1041,-1117,4028000,4028000,313,93,GOOD,DISCHARGING
1575308013441,0,1568000,2148000,760,760,600,392,309,-1041,-1117,4028000,4028000,313,93,GOOD,DISCHARGING
1575308013959,0,1568000,2148000,760,760,600,392,309,-1041,-1117,4028000,4028000,313,93,GOOD,DISCHARGING
1575308014542,0,1568000,2148000,760,760,600,392,309,-1041,-1117,4028000,4028000,313,93,GOOD,DISCHARGING
1575308015093,0,1568000,2148000,750,760,600,392,309,-1041,-1117,4028000,4028000,313,93,GOOD,DISCHARGING
1575308015649,0,1568000,2148000,760,760,600,392,309,-1041,-1117,4028000,4028000,313,93,GOOD,DISCHARGING
1575308016208,0,1568000,2148000,750,750,600,392,309,-1041,-1117,4028000,4028000,313,93,GOOD,DISCHARGING
1575308016745,0,1568000,2148000,760,760,600,392,309,-1041,-1117,4028000,4028000,313,93,GOOD,DISCHARGING
1575308017286,0,1568000,2148000,760,760,600,392,309,-1041,-1117,4028000,4028000,313,93,GOOD,DISCHARGING
1575308017809,0,1568000,2148000,760,760,600,392,309,-1041,-1117,4028000,4028000,313,93,GOOD,DISCHARGING
1575308018386,0,1568000,2148000,760,760,600,392,309,-1041,-1117,4028000,4028000,313,93,GOOD,DISCHARGING
