timestamp,iteration,little,big,thermalzone_temp0,thermalzone_temp1,thermalzone_temp2,thermalzone_temp3,thermalzone_temp4,current_now,current_avg,voltage_now,voltage_avg,batt_temp,capacity,health,status
1575399522468,0,1568000,2148000,360,360,320,312,285,376,388,3939000,3938000,285,58,GOOD,CHARGING
1575399522987,0,1568000,2148000,490,480,350,312,285,376,388,3939000,3938000,285,58,GOOD,CHARGING
1575399523537,0,1568000,2148000,510,500,370,312,285,376,388,3939000,3938000,285,58,GOOD,CHARGING
1575399524063,0,1568000,2148000,500,500,390,312,285,376,388,3939000,3938000,285,58,GOOD,CHARGING
1575399524615,0,1568000,2148000,530,530,400,313,286,-500,75,3868000,3868000,285,58,GOOD,CHARGING
1575399525187,0,1568000,2148000,540,550,410,313,285,-1039,-120,3868000,3868000,285,58,GOOD,DISCHARGING
1575399525763,0,1568000,2148000,550,550,420,313,285,-1039,-120,3868000,3868000,284,58,GOOD,DISCHARGING
1575399526307,0,1568000,2148000,570,570,420,313,285,-1039,-120,3868000,3868000,285,58,GOOD,DISCHARGING
1575399526834,0,1568000,2148000,560,560,430,313,285,-1039,-120,3868000,3868000,284,58,GOOD,DISCHARGING
1575399527422,0,1568000,2148000,550,550,430,313,285,-1039,-120,3868000,3868000,284,58,GOOD,DISCHARGING
1575399527965,0,1568000,2148000,580,580,440,313,285,-1039,-120,3868000,3868000,284,58,GOOD,DISCHARGING
1575399528510,0,1568000,2148000,580,580,440,313,285,-1039,-120,3868000,3868000,284,58,GOOD,DISCHARGING
1575399529086,0,1568000,2148000,570,570,450,313,285,-1039,-120,3868000,3868000,284,58,GOOD,DISCHARGING
1575399529630,0,1568000,2148000,590,590,450,313,285,-1039,-120,3868000,3868000,284,58,GOOD,DISCHARGING
1575399530202,0,1568000,2148000,570,570,460,313,285,-1039,-120,3868000,3868000,284,58,GOOD,DISCHARGING
1575399530797,0,1568000,2148000,600,580,460,313,285,-1039,-120,3868000,3868000,284,58,GOOD,DISCHARGING
1575399531363,0,1568000,2148000,580,580,460,313,285,-1039,-120,3868000,3868000,284,58,GOOD,DISCHARGING
1575399531880,0,1568000,2148000,590,590,460,313,285,-1039,-120,3868000,3868000,284,58,GOOD,DISCHARGING
1575399532449,0,1568000,2148000,600,600,470,313,285,-1039,-120,3868000,3868000,284,58,GOOD,DISCHARGING
1575399532996,0,1568000,2148000,590,590,470,313,285,-1039,-120,3868000,3868000,284,58,GOOD,DISCHARGING
1575399533538,0,1568000,2148000,600,600,470,313,285,-1039,-120,3868000,3868000,284,58,GOOD,DISCHARGING
1575399534110,0,1568000,2148000,600,610,470,313,285,-1039,-120,3868000,3868000,284,58,GOOD,DISCHARGING
1575399534698,0,1568000,2148000,590,590,470,313,285,-1039,-120,3868000,3868000,284,58,GOOD,DISCHARGING
1575399535232,0,1568000,2148000,600,590,470,313,285,-1039,-120,3868000,3868000,284,58,GOOD,DISCHARGING
1575399535782,0,1568000,2148000,620,620,480,313,285,-1039,-120,3868000,3868000,284,58,GOOD,DISCHARGING
1575399536326,0,1568000,2148000,610,610,480,313,285,-1039,-120,3868000,3868000,284,58,GOOD,DISCHARGING
1575399536886,0,1568000,2148000,620,620,480,313,285,-1039,-120,3868000,3868000,284,58,GOOD,DISCHARGING
1575399537429,0,1568000,2148000,610,610,480,313,285,-1039,-120,3868000,3868000,284,58,GOOD,DISCHARGING
1575399537957,0,1568000,2148000,620,620,480,313,285,-1039,-120,3868000,3868000,284,58,GOOD,DISCHARGING
1575399538486,0,1568000,2148000,630,630,480,313,285,-1039,-120,3868000,3868000,284,58,GOOD,DISCHARGING
1575399539063,0,1568000,2148000,620,620,480,313,285,-1039,-120,3868000,3868000,284,58,GOOD,DISCHARGING
1575399539625,0,1568000,2148000,620,620,490,313,285,-1039,-120,3868000,3868000,284,58,GOOD,DISCHARGING
1575399540141,0,1568000,2148000,630,630,490,313,285,-1039,-120,3868000,3868000,284,58,GOOD,DISCHARGING
1575399540738,0,1568000,2148000,620,620,490,313,285,-1039,-120,3868000,3868000,284,58,GOOD,DISCHARGING
1575399541249,0,1568000,2148000,610,610,490,313,285,-1039,-120,3868000,3868000,284,58,GOOD,DISCHARGING
1575399541800,0,1568000,2148000,630,630,490,313,285,-1039,-120,3868000,3868000,284,58,GOOD,DISCHARGING
1575399542361,0,1568000,2148000,620,630,490,313,285,-1039,-120,3868000,3868000,284,58,GOOD,DISCHARGING
1575399542878,0,1568000,2148000,630,630,490,313,285,-1039,-120,3868000,3868000,284,58,GOOD,DISCHARGING
1575399543393,0,1568000,2148000,630,610,490,313,285,-1039,-120,3868000,3868000,284,58,GOOD,DISCHARGING
1575399543973,0,1568000,2148000,620,620,490,313,285,-1039,-120,3868000,3868000,284,58,GOOD,DISCHARGING
1575399544541,0,1568000,2148000,640,640,490,313,285,-1039,-120,3868000,3868000,284,58,GOOD,DISCHARGING
1575399545059,0,1568000,2148000,610,610,490,313,285,-1039,-120,3868000,3868000,284,58,GOOD,DISCHARGING
1575399545584,0,1568000,2148000,620,620,490,313,285,-1039,-120,3868000,3868000,284,58,GOOD,DISCHARGING
1575399546137,0,1568000,2148000,630,630,490,313,285,-1039,-120,3868000,3868000,284,58,GOOD,DISCHARGING
1575399546660,0,1568000,2148000,640,640,490,313,285,-1039,-120,3868000,3868000,284,58,GOOD,DISCHARGING
1575399547206,0,1568000,2148000,630,620,490,313,285,-1039,-120,3868000,3868000,285,58,GOOD,DISCHARGING
1575399547725,0,1568000,2148000,610,610,500,313,285,-1039,-120,3868000,3868000,284,58,GOOD,DISCHARGING
1575399548297,0,1568000,2148000,620,620,500,313,285,-1039,-120,3868000,3868000,285,58,GOOD,DISCHARGING
1575399548816,0,1568000,2148000,620,620,500,313,285,-1039,-120,3868000,3868000,284,58,GOOD,DISCHARGING
1575399549349,0,1568000,2148000,640,640,500,313,285,-1039,-120,3868000,3868000,284,58,GOOD,DISCHARGING
1575399549902,0,1568000,2148000,620,620,500,313,285,-1039,-120,3868000,3868000,285,58,GOOD,DISCHARGING
1575399550443,0,1568000,2148000,620,620,500,313,285,-1039,-120,3868000,3868000,285,58,GOOD,DISCHARGING
1575399550977,0,1568000,2148000,640,620,500,313,285,-1039,-120,3868000,3868000,285,58,GOOD,DISCHARGING
1575399551488,0,1568000,2148000,620,620,500,313,285,-1039,-120,3868000,3868000,284,58,GOOD,DISCHARGING
1575399552036,0,1568000,2148000,640,640,500,313,285,-1039,-120,3868000,3868000,285,58,GOOD,DISCHARGING
1575399552595,0,1568000,2148000,640,640,500,313,285,-1039,-120,3868000,3868000,285,58,GOOD,DISCHARGING
1575399553129,0,1568000,2148000,640,640,500,313,285,-1039,-120,3868000,3868000,285,58,GOOD,DISCHARGING
1575399553657,0,1568000,2148000,640,640,500,313,285,-1039,-120,3868000,3868000,285,58,GOOD,DISCHARGING
1575399554169,0,1568000,2148000,640,620,500,313,285,-1039,-120,3868000,3868000,285,58,GOOD,DISCHARGING
1575399554720,0,1568000,2148000,640,640,500,313,285,-1039,-120,3868000,3868000,285,58,GOOD,DISCHARGING
1575399555294,0,1568000,2148000,630,630,510,313,286,-846,-836,3785000,3784000,286,58,GOOD,DISCHARGING
1575399555822,0,1568000,2148000,640,640,510,340,286,-846,-836,3785000,3784000,286,58,GOOD,DISCHARGING
1575399556334,0,1568000,2148000,640,640,510,340,286,-846,-836,3785000,3784000,285,58,GOOD,DISCHARGING
1575399556865,0,1568000,2148000,620,620,500,340,286,-846,-836,3785000,3784000,286,58,GOOD,DISCHARGING
1575399557384,0,1568000,2148000,630,630,510,340,286,-846,-836,3785000,3784000,286,58,GOOD,DISCHARGING
1575399557911,0,1568000,2148000,650,660,500,340,286,-846,-836,3785000,3784000,286,58,GOOD,DISCHARGING
1575399558430,0,1568000,2148000,640,640,500,340,286,-846,-836,3785000,3784000,286,58,GOOD,DISCHARGING
1575399558942,0,1568000,2148000,640,640,510,340,286,-846,-836,3785000,3784000,286,58,GOOD,DISCHARGING
1575399559461,0,1568000,2148000,650,650,510,340,286,-846,-836,3785000,3784000,286,58,GOOD,DISCHARGING
1575399559972,0,1568000,2148000,650,650,510,340,286,-846,-836,3785000,3784000,286,58,GOOD,DISCHARGING
1575399560492,0,1568000,2148000,660,660,510,340,286,-846,-836,3785000,3784000,286,58,GOOD,DISCHARGING
1575399561010,0,1568000,2148000,660,660,510,340,286,-846,-836,3785000,3784000,286,58,GOOD,DISCHARGING
1575399561524,0,1568000,2148000,650,650,510,340,286,-846,-836,3785000,3784000,286,58,GOOD,DISCHARGING
1575399562089,0,1568000,2148000,640,640,510,340,286,-846,-836,3785000,3784000,286,58,GOOD,DISCHARGING
1575399562648,0,1568000,2148000,650,650,510,340,286,-846,-836,3785000,3784000,286,58,GOOD,DISCHARGING
1575399563205,0,1568000,2148000,640,640,510,340,286,-846,-836,3785000,3784000,286,58,GOOD,DISCHARGING
1575399563722,0,1568000,2148000,650,650,510,340,286,-846,-836,3785000,3784000,287,58,GOOD,DISCHARGING
1575399564241,0,1568000,2148000,640,640,510,340,286,-846,-836,3785000,3784000,286,58,GOOD,DISCHARGING
1575399564809,0,1568000,2148000,650,650,510,340,286,-846,-836,3785000,3784000,286,58,GOOD,DISCHARGING
1575399565357,0,1568000,2148000,640,630,510,340,286,-846,-836,3785000,3784000,286,58,GOOD,DISCHARGING
1575399565909,0,1568000,2148000,640,640,510,340,286,-846,-836,3785000,3784000,287,58,GOOD,DISCHARGING
1575399566427,0,1568000,2148000,630,630,510,340,286,-846,-836,3785000,3784000,286,58,GOOD,DISCHARGING
1575399566989,0,1568000,2148000,650,650,510,340,286,-846,-836,3785000,3784000,286,58,GOOD,DISCHARGING
1575399567553,0,1568000,2148000,650,650,510,340,286,-846,-836,3785000,3784000,287,58,GOOD,DISCHARGING
1575399568067,0,1568000,2148000,660,660,510,340,286,-846,-836,3785000,3784000,287,58,GOOD,DISCHARGING
1575399568629,0,1568000,2148000,630,630,510,340,286,-846,-836,3785000,3784000,287,58,GOOD,DISCHARGING
1575399569160,0,1568000,2148000,650,650,510,340,286,-846,-836,3785000,3784000,287,58,GOOD,DISCHARGING
1575399569671,0,1568000,2148000,660,660,510,340,286,-846,-836,3785000,3784000,287,58,GOOD,DISCHARGING
1575399570226,0,1568000,2148000,640,640,510,340,286,-846,-836,3785000,3784000,287,58,GOOD,DISCHARGING
1575399570748,0,1568000,2148000,660,660,510,340,286,-846,-836,3785000,3784000,287,58,GOOD,DISCHARGING
1575399571274,0,1568000,2148000,650,650,510,340,286,-846,-836,3785000,3784000,287,58,GOOD,DISCHARGING
1575399571829,0,1568000,2148000,640,640,520,340,286,-846,-836,3785000,3784000,287,58,GOOD,DISCHARGING
1575399572341,0,1568000,2148000,650,650,510,340,286,-846,-836,3785000,3784000,287,58,GOOD,DISCHARGING
1575399572869,0,1568000,2148000,650,650,510,340,286,-846,-836,3785000,3784000,287,58,GOOD,DISCHARGING
1575399573385,0,1568000,2148000,670,670,510,340,286,-846,-836,3785000,3784000,287,58,GOOD,DISCHARGING
1575399573897,0,1568000,2148000,660,660,520,340,286,-846,-836,3785000,3784000,288,58,GOOD,DISCHARGING
1575399574410,0,1568000,2148000,660,660,520,340,286,-846,-836,3785000,3784000,287,58,GOOD,DISCHARGING
1575399574927,0,1568000,2148000,660,660,510,340,286,-846,-836,3785000,3784000,288,58,GOOD,DISCHARGING
1575399575447,0,1568000,2148000,670,670,520,340,286,-846,-836,3785000,3784000,288,58,GOOD,DISCHARGING
1575399575964,0,1568000,2148000,660,660,520,340,286,-846,-836,3785000,3784000,288,58,GOOD,DISCHARGING
1575399576504,0,1568000,2148000,650,650,520,340,286,-846,-836,3785000,3784000,288,58,GOOD,DISCHARGING
1575399577014,0,1568000,2148000,640,640,520,340,286,-846,-836,3785000,3784000,288,58,GOOD,DISCHARGING
1575399577532,0,1568000,2148000,630,630,520,340,286,-846,-836,3785000,3784000,288,58,GOOD,DISCHARGING
1575399578042,0,1568000,2148000,640,640,520,340,286,-846,-836,3785000,3784000,288,58,GOOD,DISCHARGING
1575399578559,0,1568000,2148000,640,640,520,340,286,-846,-836,3785000,3784000,288,58,GOOD,DISCHARGING
1575399579124,0,1568000,2148000,650,650,520,340,286,-846,-836,3785000,3784000,289,58,GOOD,DISCHARGING
1575399579634,0,1568000,2148000,650,650,520,340,286,-846,-836,3785000,3784000,288,58,GOOD,DISCHARGING
1575399580157,0,1568000,2148000,660,670,520,340,286,-846,-836,3785000,3784000,288,58,GOOD,DISCHARGING
1575399580721,0,1568000,2148000,650,650,520,340,286,-846,-836,3785000,3784000,289,58,GOOD,DISCHARGING
1575399581239,0,1568000,2148000,640,650,520,340,286,-846,-836,3785000,3784000,289,58,GOOD,DISCHARGING
1575399581755,0,1568000,2148000,650,650,520,340,286,-846,-836,3785000,3784000,289,58,GOOD,DISCHARGING
1575399582270,0,1568000,2148000,660,660,520,340,286,-846,-836,3785000,3784000,289,58,GOOD,DISCHARGING
1575399582810,0,1568000,2148000,640,640,520,340,286,-846,-836,3785000,3784000,289,58,GOOD,DISCHARGING
1575399583320,0,1568000,2148000,650,650,520,340,286,-846,-836,3785000,3784000,289,58,GOOD,DISCHARGING
1575399583848,0,1568000,2148000,660,660,520,340,286,-846,-836,3785000,3784000,289,58,GOOD,DISCHARGING
1575399584364,0,1568000,2148000,660,660,520,340,286,-846,-836,3785000,3784000,289,58,GOOD,DISCHARGING
1575399584913,0,1568000,2148000,660,660,520,340,286,-846,-836,3785000,3784000,290,58,GOOD,DISCHARGING
1575399585429,0,1568000,2148000,630,630,520,340,286,-846,-836,3785000,3784000,289,58,GOOD,DISCHARGING
1575399585962,0,1568000,2148000,630,630,520,355,290,-921,-965,3763000,3762000,289,57,GOOD,DISCHARGING
1575399586486,0,1568000,2148000,660,660,520,355,290,-921,-965,3763000,3762000,290,57,GOOD,DISCHARGING
1575399586996,0,1568000,2148000,660,660,520,355,290,-921,-965,3763000,3762000,290,57,GOOD,DISCHARGING
1575399587506,0,1568000,2148000,660,660,520,355,290,-921,-965,3763000,3762000,290,57,GOOD,DISCHARGING
1575399588016,0,1568000,2148000,660,660,520,355,290,-921,-965,3763000,3762000,289,57,GOOD,DISCHARGING
1575399588572,0,1568000,2148000,670,670,520,355,290,-921,-965,3763000,3762000,290,57,GOOD,DISCHARGING
1575399589114,0,1568000,2148000,660,660,520,355,290,-921,-965,3763000,3762000,290,57,GOOD,DISCHARGING
1575399589631,0,1568000,2148000,650,640,520,355,290,-921,-965,3763000,3762000,290,57,GOOD,DISCHARGING
1575399590188,0,1568000,2148000,660,660,520,355,290,-921,-965,3763000,3762000,290,57,GOOD,DISCHARGING
1575399590697,0,1568000,2148000,660,660,520,355,290,-921,-965,3763000,3762000,290,57,GOOD,DISCHARGING
1575399591207,0,1568000,2148000,660,660,520,355,290,-921,-965,3763000,3762000,290,57,GOOD,DISCHARGING
1575399591725,0,1568000,2148000,660,660,520,355,290,-921,-965,3763000,3762000,290,57,GOOD,DISCHARGING
1575399592241,0,1568000,2148000,640,640,520,355,290,-921,-965,3763000,3762000,290,57,GOOD,DISCHARGING
1575399592780,0,1568000,2148000,660,660,530,355,290,-921,-965,3763000,3762000,290,57,GOOD,DISCHARGING
1575399593291,0,1568000,2148000,670,670,530,355,290,-921,-965,3763000,3762000,290,57,GOOD,DISCHARGING
1575399593808,0,1568000,2148000,680,680,530,355,290,-921,-965,3763000,3762000,290,57,GOOD,DISCHARGING
1575399594381,0,1568000,2148000,640,640,530,355,290,-921,-965,3763000,3762000,291,57,GOOD,DISCHARGING
1575399594897,0,1568000,2148000,640,640,530,355,290,-921,-965,3763000,3762000,291,57,GOOD,DISCHARGING
1575399595407,0,1568000,2148000,660,660,530,355,290,-921,-965,3763000,3762000,291,57,GOOD,DISCHARGING
1575399595924,0,1568000,2148000,660,670,530,355,290,-921,-965,3763000,3762000,290,57,GOOD,DISCHARGING
1575399596480,0,1568000,2148000,660,660,530,355,290,-921,-965,3763000,3762000,291,57,GOOD,DISCHARGING
1575399596989,0,1568000,2148000,660,660,530,355,290,-921,-965,3763000,3762000,291,57,GOOD,DISCHARGING
1575399597500,0,1568000,2148000,660,660,530,355,290,-921,-965,3763000,3762000,291,57,GOOD,DISCHARGING
1575399598010,0,1568000,2148000,670,670,530,355,290,-921,-965,3763000,3762000,291,57,GOOD,DISCHARGING
1575399598569,0,1568000,2148000,660,660,530,355,290,-921,-965,3763000,3762000,291,57,GOOD,DISCHARGING
1575399599086,0,1568000,2148000,670,670,520,355,290,-921,-965,3763000,3762000,291,57,GOOD,DISCHARGING
1575399599599,0,1568000,2148000,660,660,530,355,290,-921,-965,3763000,3762000,291,57,GOOD,DISCHARGING
1575399600116,0,1568000,2148000,660,660,530,355,290,-921,-965,3763000,3762000,291,57,GOOD,DISCHARGING
1575399600677,0,1568000,2148000,670,670,530,355,290,-921,-965,3763000,3762000,291,57,GOOD,DISCHARGING
1575399601201,0,1568000,2148000,670,670,530,355,290,-921,-965,3763000,3762000,291,57,GOOD,DISCHARGING
1575399601721,0,1568000,2148000,650,650,530,355,290,-921,-965,3763000,3762000,292,57,GOOD,DISCHARGING
1575399602239,0,1568000,2148000,680,680,530,355,290,-921,-965,3763000,3762000,292,57,GOOD,DISCHARGING
1575399602749,0,1568000,2148000,680,680,530,355,290,-921,-965,3763000,3762000,292,57,GOOD,DISCHARGING
1575399603268,0,1568000,2148000,660,660,530,355,290,-921,-965,3763000,3762000,291,57,GOOD,DISCHARGING
1575399603828,0,1568000,2148000,650,650,530,355,290,-921,-965,3763000,3762000,292,57,GOOD,DISCHARGING
1575399604343,0,1568000,2148000,670,660,530,355,290,-921,-965,3763000,3762000,292,57,GOOD,DISCHARGING
1575399604884,0,1568000,2148000,670,670,530,355,290,-921,-965,3763000,3762000,292,57,GOOD,DISCHARGING
1575399605403,0,1568000,2148000,660,670,530,355,290,-921,-965,3763000,3762000,292,57,GOOD,DISCHARGING
1575399605941,0,1568000,2148000,680,680,530,355,290,-921,-965,3763000,3762000,292,57,GOOD,DISCHARGING
1575399606459,0,1568000,2148000,660,660,530,355,290,-921,-965,3763000,3762000,293,57,GOOD,DISCHARGING
1575399606977,0,1568000,2148000,660,660,530,355,290,-921,-965,3763000,3762000,293,57,GOOD,DISCHARGING
1575399607493,0,1568000,2148000,670,670,530,355,290,-921,-965,3763000,3762000,292,57,GOOD,DISCHARGING
1575399608037,0,1568000,2148000,670,670,530,355,290,-921,-965,3763000,3762000,292,57,GOOD,DISCHARGING
1575399608593,0,1568000,2148000,670,670,530,355,290,-921,-965,3763000,3762000,292,57,GOOD,DISCHARGING
1575399609156,0,1568000,2148000,650,650,530,355,290,-921,-965,3763000,3762000,292,57,GOOD,DISCHARGING
1575399609725,0,1568000,2148000,650,650,530,355,290,-921,-965,3763000,3762000,293,57,GOOD,DISCHARGING
1575399610261,0,1568000,2148000,680,680,530,355,290,-921,-965,3763000,3762000,293,57,GOOD,DISCHARGING
1575399610779,0,1568000,2148000,650,650,530,355,290,-921,-965,3763000,3762000,293,57,GOOD,DISCHARGING
1575399611297,0,1568000,2148000,680,680,530,355,290,-921,-965,3763000,3762000,293,57,GOOD,DISCHARGING
1575399611857,0,1568000,2148000,660,660,530,355,290,-921,-965,3763000,3762000,293,57,GOOD,DISCHARGING
1575399612420,0,1568000,2148000,670,670,530,355,290,-921,-965,3763000,3762000,293,57,GOOD,DISCHARGING
1575399612985,0,1568000,2148000,650,650,530,355,290,-921,-965,3763000,3762000,294,57,GOOD,DISCHARGING
1575399613497,0,1568000,2148000,640,640,530,355,290,-921,-965,3763000,3762000,294,57,GOOD,DISCHARGING
1575399614025,0,1568000,2148000,660,660,530,355,290,-921,-965,3763000,3762000,294,57,GOOD,DISCHARGING
1575399614544,0,1568000,2148000,670,660,530,355,290,-921,-965,3763000,3762000,294,57,GOOD,DISCHARGING
1575399615059,0,1568000,2148000,670,670,530,355,290,-921,-965,3763000,3762000,294,57,GOOD,DISCHARGING
1575399615576,0,1568000,2148000,650,650,530,355,290,-921,-965,3763000,3762000,294,57,GOOD,DISCHARGING
1575399616116,0,1568000,2148000,680,680,530,364,294,-1073,-974,3758000,3758000,294,57,GOOD,DISCHARGING
1575399616636,0,1568000,2148000,680,680,530,364,294,-1073,-974,3758000,3758000,294,57,GOOD,DISCHARGING
1575399617149,0,1568000,2148000,680,680,530,364,294,-1073,-974,3758000,3758000,294,57,GOOD,DISCHARGING
1575399617667,0,1568000,2148000,670,660,530,364,294,-1073,-974,3758000,3758000,294,57,GOOD,DISCHARGING
1575399618186,0,1568000,2148000,660,660,540,364,294,-1073,-974,3758000,3758000,294,57,GOOD,DISCHARGING
1575399618703,0,1568000,2148000,660,660,530,364,294,-1073,-974,3758000,3758000,294,57,GOOD,DISCHARGING
1575399619277,0,1568000,2148000,660,660,540,364,294,-1073,-974,3758000,3758000,294,57,GOOD,DISCHARGING
1575399619793,0,1568000,2148000,670,670,530,364,294,-1073,-974,3758000,3758000,294,57,GOOD,DISCHARGING
1575399620308,0,1568000,2148000,680,680,530,364,294,-1073,-974,3758000,3758000,294,57,GOOD,DISCHARGING
1575399620837,0,1568000,2148000,680,680,530,364,294,-1073,-974,3758000,3758000,294,57,GOOD,DISCHARGING
1575399621401,0,1568000,2148000,660,660,540,364,294,-1073,-974,3758000,3758000,294,57,GOOD,DISCHARGING
1575399621912,0,1568000,2148000,660,660,530,364,294,-1073,-974,3758000,3758000,294,57,GOOD,DISCHARGING
1575399622423,0,1568000,2148000,660,660,540,364,294,-1073,-974,3758000,3758000,294,57,GOOD,DISCHARGING
1575399622967,0,1568000,2148000,650,650,530,364,294,-1073,-974,3758000,3758000,295,57,GOOD,DISCHARGING
1575399623481,0,1568000,2148000,660,670,540,364,294,-1073,-974,3758000,3758000,294,57,GOOD,DISCHARGING
1575399624012,0,1568000,2148000,670,670,540,364,294,-1073,-974,3758000,3758000,295,57,GOOD,DISCHARGING
1575399624528,0,1568000,2148000,680,690,530,364,294,-1073,-974,3758000,3758000,295,57,GOOD,DISCHARGING
1575399625093,0,1568000,2148000,660,660,540,364,294,-1073,-974,3758000,3758000,295,57,GOOD,DISCHARGING
1575399625609,0,1568000,2148000,660,660,530,364,294,-1073,-974,3758000,3758000,295,57,GOOD,DISCHARGING
1575399626176,0,1568000,2148000,670,670,540,364,294,-1073,-974,3758000,3758000,295,57,GOOD,DISCHARGING
1575399626733,0,1568000,2148000,660,660,540,364,294,-1073,-974,3758000,3758000,295,57,GOOD,DISCHARGING
1575399627258,0,1568000,2148000,670,670,540,364,294,-1073,-974,3758000,3758000,295,57,GOOD,DISCHARGING
1575399627768,0,1568000,2148000,680,680,530,364,294,-1073,-974,3758000,3758000,295,57,GOOD,DISCHARGING
1575399628315,0,1568000,2148000,660,660,540,364,294,-1073,-974,3758000,3758000,295,57,GOOD,DISCHARGING
1575399628857,0,1568000,2148000,670,670,540,364,294,-1073,-974,3758000,3758000,296,57,GOOD,DISCHARGING
1575399629375,0,1568000,2148000,680,680,540,364,294,-1073,-974,3758000,3758000,295,57,GOOD,DISCHARGING
1575399629912,0,1568000,2148000,660,660,540,364,294,-1073,-974,3758000,3758000,296,57,GOOD,DISCHARGING
1575399630428,0,1568000,2148000,660,660,540,364,294,-1073,-974,3758000,3758000,296,57,GOOD,DISCHARGING
1575399630945,0,1568000,2148000,680,680,540,364,294,-1073,-974,3758000,3758000,296,57,GOOD,DISCHARGING
1575399631461,0,1568000,2148000,680,680,540,364,294,-1073,-974,3758000,3758000,296,57,GOOD,DISCHARGING
1575399631972,0,1568000,2148000,680,680,540,364,294,-1073,-974,3758000,3758000,296,57,GOOD,DISCHARGING
1575399632494,0,1568000,2148000,660,660,540,364,294,-1073,-974,3758000,3758000,296,57,GOOD,DISCHARGING
1575399633004,0,1568000,2148000,680,680,540,364,294,-1073,-974,3758000,3758000,296,57,GOOD,DISCHARGING
1575399633518,0,1568000,2148000,670,670,540,364,294,-1073,-974,3758000,3758000,296,57,GOOD,DISCHARGING
1575399634036,0,1568000,2148000,660,660,540,364,294,-1073,-974,3758000,3758000,296,57,GOOD,DISCHARGING
1575399634554,0,1568000,2148000,660,660,540,364,294,-1073,-974,3758000,3758000,296,57,GOOD,DISCHARGING
1575399635100,0,1568000,2148000,670,670,540,364,294,-1073,-974,3758000,3758000,297,57,GOOD,DISCHARGING
1575399635618,0,1568000,2148000,680,680,540,364,294,-1073,-974,3758000,3758000,296,57,GOOD,DISCHARGING
1575399636193,0,1568000,2148000,680,680,540,364,294,-1073,-974,3758000,3758000,297,57,GOOD,DISCHARGING
1575399636711,0,1568000,2148000,680,680,540,364,294,-1073,-974,3758000,3758000,297,57,GOOD,DISCHARGING
1575399637265,0,1568000,2148000,670,670,540,364,294,-1073,-974,3758000,3758000,297,57,GOOD,DISCHARGING
1575399637776,0,1568000,2148000,670,670,540,364,294,-1073,-974,3758000,3758000,297,57,GOOD,DISCHARGING
1575399638288,0,1568000,2148000,680,680,540,364,294,-1073,-974,3758000,3758000,297,57,GOOD,DISCHARGING
1575399638861,0,1568000,2148000,660,660,540,364,294,-1073,-974,3758000,3758000,297,57,GOOD,DISCHARGING
1575399639378,0,1568000,2148000,680,680,540,364,294,-1073,-974,3758000,3758000,297,57,GOOD,DISCHARGING
1575399639931,0,1568000,2148000,670,670,540,364,294,-1073,-974,3758000,3758000,297,57,GOOD,DISCHARGING
1575399640454,0,1568000,2148000,680,680,540,364,294,-1073,-974,3758000,3758000,297,57,GOOD,DISCHARGING
1575399641005,0,1568000,2148000,670,670,540,364,294,-1073,-974,3758000,3758000,297,57,GOOD,DISCHARGING
1575399641577,0,1568000,2148000,670,670,540,364,294,-1073,-974,3758000,3758000,298,57,GOOD,DISCHARGING
1575399642098,0,1568000,2148000,680,680,540,364,294,-1073,-974,3758000,3758000,298,57,GOOD,DISCHARGING
