timestamp,iteration,little,big,thermalzone_temp0,thermalzone_temp1,thermalzone_temp2,thermalzone_temp3,thermalzone_temp4,current_now,current_avg,voltage_now,voltage_avg,batt_temp,capacity,health,status
1575914188077,0,1568000,2148000,410,410,350,340,312,385,370,3990000,3990000,312,64,GOOD,CHARGING
1575914188636,0,1568000,2148000,460,460,380,340,312,385,370,3990000,3990000,312,64,GOOD,CHARGING
1575914189253,0,1568000,2148000,480,480,400,340,312,385,370,3990000,3990000,311,64,GOOD,CHARGING
1575914189879,0,1568000,2148000,490,490,410,340,311,-997,58,3935000,3934000,311,64,GOOD,DISCHARGING
1575914190509,0,1568000,2148000,540,520,420,340,311,-997,58,3935000,3934000,311,64,GOOD,DISCHARGING
1575914191165,0,1568000,2148000,510,510,430,340,311,-997,58,3935000,3934000,310,64,GOOD,DISCHARGING
1575914191890,0,1568000,2148000,540,540,430,340,311,-997,58,3935000,3934000,310,64,GOOD,DISCHARGING
1575914192513,0,1568000,2148000,530,530,440,340,311,-997,58,3935000,3934000,310,64,GOOD,DISCHARGING
1575914193116,0,1568000,2148000,530,530,440,340,311,-997,58,3935000,3934000,310,64,GOOD,DISCHARGING
1575914193737,0,1568000,2148000,530,530,450,340,311,-997,58,3935000,3934000,310,64,GOOD,DISCHARGING
1575914194341,0,1568000,2148000,530,540,450,340,311,-997,58,3935000,3934000,310,64,GOOD,DISCHARGING
1575914194950,0,1568000,2148000,550,550,460,340,311,-997,58,3935000,3934000,310,64,GOOD,DISCHARGING
1575914195588,0,1568000,2148000,580,580,460,340,311,-997,58,3935000,3934000,310,64,GOOD,DISCHARGING
1575914196220,0,1568000,2148000,550,550,460,340,311,-997,58,3935000,3934000,310,64,GOOD,DISCHARGING
1575914196901,0,1568000,2148000,560,560,470,340,311,-997,58,3935000,3934000,310,64,GOOD,DISCHARGING
1575914197517,0,1568000,2148000,550,550,460,340,311,-997,58,3935000,3934000,310,64,GOOD,DISCHARGING
1575914198123,0,1568000,2148000,550,550,470,340,311,-997,58,3935000,3934000,309,64,GOOD,DISCHARGING
1575914198714,0,1568000,2148000,580,580,470,340,311,-997,58,3935000,3934000,310,64,GOOD,DISCHARGING
1575914199333,0,1568000,2148000,560,560,470,340,311,-997,58,3935000,3934000,309,64,GOOD,DISCHARGING
1575914199934,0,1568000,2148000,570,570,470,340,311,-997,58,3935000,3934000,310,64,GOOD,DISCHARGING
1575914200519,0,1568000,2148000,580,580,480,340,311,-997,58,3935000,3934000,310,64,GOOD,DISCHARGING
1575914201161,0,1568000,2148000,560,560,480,340,311,-997,58,3935000,3934000,310,64,GOOD,DISCHARGING
1575914201878,0,1568000,2148000,600,600,480,340,311,-997,58,3935000,3934000,310,64,GOOD,DISCHARGING
1575914202519,0,1568000,2148000,590,590,480,340,311,-997,58,3935000,3934000,309,64,GOOD,DISCHARGING
1575914203140,0,1568000,2148000,570,560,480,340,311,-997,58,3935000,3934000,310,64,GOOD,DISCHARGING
1575914203738,0,1568000,2148000,570,570,480,340,311,-997,58,3935000,3934000,309,64,GOOD,DISCHARGING
1575914204368,0,1568000,2148000,560,560,480,340,311,-997,58,3935000,3934000,309,64,GOOD,DISCHARGING
1575914204977,0,1568000,2148000,560,560,480,340,311,-997,58,3935000,3934000,310,64,GOOD,DISCHARGING
1575914205577,0,1568000,2148000,560,560,480,340,311,-997,58,3935000,3934000,310,64,GOOD,DISCHARGING
1575914206186,0,1568000,2148000,560,560,490,340,311,-997,58,3935000,3934000,310,64,GOOD,DISCHARGING
1575914206757,0,1568000,2148000,580,590,490,340,311,-997,58,3935000,3934000,310,64,GOOD,DISCHARGING
1575914207362,0,1568000,2148000,560,560,480,340,311,-997,58,3935000,3934000,309,64,GOOD,DISCHARGING
1575914207959,0,1568000,2148000,560,560,490,340,311,-997,58,3935000,3934000,310,64,GOOD,DISCHARGING
1575914208529,0,1568000,2148000,570,560,490,340,311,-997,58,3935000,3934000,309,64,GOOD,DISCHARGING
1575914209151,0,1568000,2148000,570,570,490,340,311,-997,58,3935000,3934000,309,64,GOOD,DISCHARGING
1575914209760,0,1568000,2148000,560,560,490,340,311,-997,58,3935000,3934000,309,64,GOOD,DISCHARGING
1575914210394,0,1568000,2148000,600,600,490,340,311,-997,58,3935000,3934000,310,64,GOOD,DISCHARGING
1575914211013,0,1568000,2148000,580,580,490,340,311,-997,58,3935000,3934000,310,64,GOOD,DISCHARGING
1575914211652,0,1568000,2148000,580,580,500,340,311,-997,58,3935000,3934000,310,64,GOOD,DISCHARGING
1575914212276,0,1568000,2148000,580,580,490,340,311,-997,58,3935000,3934000,310,64,GOOD,DISCHARGING
1575914212806,0,1568000,2148000,590,580,490,340,311,-997,58,3935000,3934000,310,64,GOOD,DISCHARGING
1575914213426,0,1568000,2148000,580,580,490,340,311,-997,58,3935000,3934000,310,64,GOOD,DISCHARGING
1575914214024,0,1568000,2148000,580,580,490,340,311,-997,58,3935000,3934000,310,64,GOOD,DISCHARGING
1575914214655,0,1568000,2148000,570,570,500,340,311,-997,58,3935000,3934000,310,64,GOOD,DISCHARGING
1575914215273,0,1568000,2148000,570,570,500,340,311,-997,58,3935000,3934000,310,64,GOOD,DISCHARGING
1575914215883,0,1568000,2148000,590,590,500,340,311,-997,58,3935000,3934000,310,64,GOOD,DISCHARGING
1575914216525,0,1568000,2148000,590,590,500,340,311,-997,58,3935000,3934000,310,64,GOOD,DISCHARGING
1575914217197,0,1568000,2148000,580,580,500,340,311,-997,58,3935000,3934000,310,64,GOOD,DISCHARGING
1575914217815,0,1568000,2148000,590,590,500,340,311,-997,58,3935000,3934000,310,64,GOOD,DISCHARGING
1575914218389,0,1568000,2148000,580,580,500,340,311,-997,58,3935000,3934000,310,64,GOOD,DISCHARGING
1575914218994,0,1568000,2148000,580,580,500,340,311,-997,58,3935000,3934000,310,64,GOOD,DISCHARGING
1575914219599,0,1568000,2148000,580,580,500,340,311,-997,58,3935000,3934000,310,64,GOOD,DISCHARGING
1575914220181,0,1568000,2148000,580,580,500,360,310,-748,-703,3856000,3856000,310,64,GOOD,DISCHARGING
1575914220759,0,1568000,2148000,590,590,500,360,310,-748,-703,3856000,3856000,310,64,GOOD,DISCHARGING
1575914221396,0,1568000,2148000,600,600,500,360,310,-748,-703,3856000,3856000,310,64,GOOD,DISCHARGING
1575914221968,0,1568000,2148000,580,580,500,360,310,-748,-703,3856000,3856000,310,64,GOOD,DISCHARGING
1575914222582,0,1568000,2148000,580,600,500,360,310,-748,-703,3856000,3856000,310,64,GOOD,DISCHARGING
1575914223181,0,1568000,2148000,580,580,500,360,310,-748,-703,3856000,3856000,310,64,GOOD,DISCHARGING
1575914223765,0,1568000,2148000,580,580,500,360,310,-748,-703,3856000,3856000,310,64,GOOD,DISCHARGING
1575914224363,0,1568000,2148000,600,600,500,360,310,-748,-703,3856000,3856000,310,64,GOOD,DISCHARGING
1575914224978,0,1568000,2148000,620,610,510,360,310,-748,-703,3856000,3856000,311,64,GOOD,DISCHARGING
1575914225571,0,1568000,2148000,610,610,500,360,310,-748,-703,3856000,3856000,311,64,GOOD,DISCHARGING
1575914226114,0,1568000,2148000,580,580,500,360,310,-748,-703,3856000,3856000,310,64,GOOD,DISCHARGING
1575914226706,0,1568000,2148000,580,580,500,360,310,-748,-703,3856000,3856000,311,64,GOOD,DISCHARGING
1575914227328,0,1568000,2148000,590,600,510,360,310,-748,-703,3856000,3856000,311,64,GOOD,DISCHARGING
1575914227933,0,1568000,2148000,590,600,510,360,310,-748,-703,3856000,3856000,311,64,GOOD,DISCHARGING
1575914228531,0,1568000,2148000,620,620,510,360,310,-748,-703,3856000,3856000,311,64,GOOD,DISCHARGING
1575914229160,0,1568000,2148000,600,600,510,360,310,-748,-703,3856000,3856000,311,64,GOOD,DISCHARGING
1575914229796,0,1568000,2148000,600,600,500,360,310,-748,-703,3856000,3856000,311,64,GOOD,DISCHARGING
1575914230386,0,1568000,2148000,590,590,500,360,310,-748,-703,3856000,3856000,311,64,GOOD,DISCHARGING
1575914230989,0,1568000,2148000,600,600,500,360,310,-748,-703,3856000,3856000,311,64,GOOD,DISCHARGING
1575914231584,0,1568000,2148000,600,600,500,360,310,-748,-703,3856000,3856000,311,64,GOOD,DISCHARGING
1575914232163,0,1568000,2148000,590,590,510,360,310,-748,-703,3856000,3856000,311,64,GOOD,DISCHARGING
1575914232816,0,1568000,2148000,590,580,510,360,310,-748,-703,3856000,3856000,311,64,GOOD,DISCHARGING
1575914233452,0,1568000,2148000,610,610,510,360,310,-748,-703,3856000,3856000,311,64,GOOD,DISCHARGING
1575914234069,0,1568000,2148000,630,630,510,360,310,-748,-703,3856000,3856000,312,64,GOOD,DISCHARGING
1575914234700,0,1568000,2148000,600,600,510,360,310,-748,-703,3856000,3856000,311,64,GOOD,DISCHARGING
1575914235369,0,1568000,2148000,600,600,510,360,310,-748,-703,3856000,3856000,312,64,GOOD,DISCHARGING
1575914235973,0,1568000,2148000,590,590,500,360,310,-748,-703,3856000,3856000,312,64,GOOD,DISCHARGING
1575914236545,0,1568000,2148000,600,600,510,360,310,-748,-703,3856000,3856000,312,64,GOOD,DISCHARGING
1575914237149,0,1568000,2148000,590,590,510,360,310,-748,-703,3856000,3856000,312,64,GOOD,DISCHARGING
1575914237711,0,1568000,2148000,590,590,510,360,310,-748,-703,3856000,3856000,312,64,GOOD,DISCHARGING
1575914238388,0,1568000,2148000,580,580,510,360,310,-748,-703,3856000,3856000,312,64,GOOD,DISCHARGING
1575914238977,0,1568000,2148000,600,600,510,360,310,-748,-703,3856000,3856000,312,64,GOOD,DISCHARGING
1575914239611,0,1568000,2148000,620,610,510,360,310,-748,-703,3856000,3856000,312,64,GOOD,DISCHARGING
1575914240285,0,1568000,2148000,600,600,510,360,310,-748,-703,3856000,3856000,312,64,GOOD,DISCHARGING
1575914240873,0,1568000,2148000,600,600,510,360,310,-748,-703,3856000,3856000,312,64,GOOD,DISCHARGING
1575914241419,0,1568000,2148000,600,600,510,360,310,-748,-703,3856000,3856000,312,64,GOOD,DISCHARGING
1575914242020,0,1568000,2148000,620,620,510,360,310,-748,-703,3856000,3856000,312,64,GOOD,DISCHARGING
1575914242640,0,1568000,2148000,600,600,510,360,310,-748,-703,3856000,3856000,312,64,GOOD,DISCHARGING
1575914243268,0,1568000,2148000,590,590,510,360,310,-748,-703,3856000,3856000,312,64,GOOD,DISCHARGING
1575914243897,0,1568000,2148000,580,580,510,360,310,-748,-703,3856000,3856000,313,64,GOOD,DISCHARGING
1575914244482,0,1568000,2148000,600,610,510,360,310,-748,-703,3856000,3856000,312,64,GOOD,DISCHARGING
1575914245106,0,1568000,2148000,620,620,510,360,310,-748,-703,3856000,3856000,312,64,GOOD,DISCHARGING
1575914245677,0,1568000,2148000,590,590,510,360,310,-748,-703,3856000,3856000,312,64,GOOD,DISCHARGING
1575914246267,0,1568000,2148000,590,590,510,360,310,-748,-703,3856000,3856000,313,64,GOOD,DISCHARGING
1575914246861,0,1568000,2148000,590,590,510,360,310,-748,-703,3856000,3856000,313,64,GOOD,DISCHARGING
1575914247402,0,1568000,2148000,590,590,510,360,310,-748,-703,3856000,3856000,313,64,GOOD,DISCHARGING
1575914248010,0,1568000,2148000,590,590,510,360,310,-748,-703,3856000,3856000,313,64,GOOD,DISCHARGING
1575914248583,0,1568000,2148000,600,600,510,360,310,-748,-703,3856000,3856000,313,64,GOOD,DISCHARGING
1575914249166,0,1568000,2148000,600,600,510,360,310,-748,-703,3856000,3856000,313,64,GOOD,DISCHARGING
1575914249770,0,1568000,2148000,600,600,510,360,310,-748,-703,3856000,3856000,313,64,GOOD,DISCHARGING
1575914250372,0,1568000,2148000,600,600,510,372,313,-723,-822,3846000,3846000,313,64,GOOD,DISCHARGING
1575914250988,0,1568000,2148000,590,590,510,372,313,-723,-822,3846000,3846000,313,64,GOOD,DISCHARGING
1575914251558,0,1568000,2148000,600,600,520,372,313,-723,-822,3846000,3846000,313,64,GOOD,DISCHARGING
1575914252182,0,1568000,2148000,630,630,510,372,313,-723,-822,3846000,3846000,313,64,GOOD,DISCHARGING
1575914252765,0,1568000,2148000,600,600,510,372,313,-723,-822,3846000,3846000,313,64,GOOD,DISCHARGING
1575914253365,0,1568000,2148000,590,590,510,372,313,-723,-822,3846000,3846000,313,64,GOOD,DISCHARGING
1575914253957,0,1568000,2148000,590,590,510,372,313,-723,-822,3846000,3846000,313,64,GOOD,DISCHARGING
1575914254533,0,1568000,2148000,590,590,520,372,313,-723,-822,3846000,3846000,313,64,GOOD,DISCHARGING
1575914255141,0,1568000,2148000,590,590,520,372,313,-723,-822,3846000,3846000,313,64,GOOD,DISCHARGING
1575914255767,0,1568000,2148000,630,640,520,372,313,-723,-822,3846000,3846000,313,64,GOOD,DISCHARGING
1575914256414,0,1568000,2148000,600,600,520,372,313,-723,-822,3846000,3846000,313,64,GOOD,DISCHARGING
1575914257059,0,1568000,2148000,610,610,520,372,313,-723,-822,3846000,3846000,313,64,GOOD,DISCHARGING
1575914257663,0,1568000,2148000,600,600,510,372,313,-723,-822,3846000,3846000,314,64,GOOD,DISCHARGING
1575914258205,0,1568000,2148000,620,610,510,372,313,-723,-822,3846000,3846000,314,64,GOOD,DISCHARGING
1575914258839,0,1568000,2148000,600,600,510,372,313,-723,-822,3846000,3846000,314,64,GOOD,DISCHARGING
1575914259447,0,1568000,2148000,600,600,510,372,313,-723,-822,3846000,3846000,314,64,GOOD,DISCHARGING
1575914260075,0,1568000,2148000,610,610,520,372,313,-723,-822,3846000,3846000,314,64,GOOD,DISCHARGING
1575914260706,0,1568000,2148000,610,610,520,372,313,-723,-822,3846000,3846000,314,64,GOOD,DISCHARGING
1575914261345,0,1568000,2148000,610,610,520,372,313,-723,-822,3846000,3846000,314,64,GOOD,DISCHARGING
1575914261971,0,1568000,2148000,600,600,510,372,313,-723,-822,3846000,3846000,314,64,GOOD,DISCHARGING
1575914262566,0,1568000,2148000,600,600,510,372,313,-723,-822,3846000,3846000,314,64,GOOD,DISCHARGING
1575914263140,0,1568000,2148000,600,600,520,372,313,-723,-822,3846000,3846000,314,64,GOOD,DISCHARGING
1575914263724,0,1568000,2148000,600,590,520,372,313,-723,-822,3846000,3846000,314,64,GOOD,DISCHARGING
1575914264330,0,1568000,2148000,600,600,520,372,313,-723,-822,3846000,3846000,314,64,GOOD,DISCHARGING
1575914264963,0,1568000,2148000,610,610,520,372,313,-723,-822,3846000,3846000,314,64,GOOD,DISCHARGING
1575914265573,0,1568000,2148000,640,640,520,372,313,-723,-822,3846000,3846000,314,64,GOOD,DISCHARGING
1575914266209,0,1568000,2148000,620,620,520,372,313,-723,-822,3846000,3846000,315,64,GOOD,DISCHARGING
1575914266824,0,1568000,2148000,610,610,510,372,313,-723,-822,3846000,3846000,315,64,GOOD,DISCHARGING
1575914267406,0,1568000,2148000,620,620,520,372,313,-723,-822,3846000,3846000,315,64,GOOD,DISCHARGING
1575914268006,0,1568000,2148000,620,620,520,372,313,-723,-822,3846000,3846000,315,64,GOOD,DISCHARGING
1575914268640,0,1568000,2148000,600,600,520,372,313,-723,-822,3846000,3846000,315,64,GOOD,DISCHARGING
1575914269278,0,1568000,2148000,610,620,520,372,313,-723,-822,3846000,3846000,315,64,GOOD,DISCHARGING
1575914269872,0,1568000,2148000,630,630,520,372,313,-723,-822,3846000,3846000,315,64,GOOD,DISCHARGING
1575914270492,0,1568000,2148000,630,630,520,372,313,-723,-822,3846000,3846000,315,64,GOOD,DISCHARGING
1575914271059,0,1568000,2148000,610,610,520,372,313,-723,-822,3846000,3846000,315,64,GOOD,DISCHARGING
1575914271641,0,1568000,2148000,600,600,520,372,313,-723,-822,3846000,3846000,315,64,GOOD,DISCHARGING
1575914272250,0,1568000,2148000,590,590,520,372,313,-723,-822,3846000,3846000,315,64,GOOD,DISCHARGING
1575914272852,0,1568000,2148000,610,610,520,372,313,-723,-822,3846000,3846000,315,64,GOOD,DISCHARGING
1575914273463,0,1568000,2148000,640,640,520,372,313,-723,-822,3846000,3846000,315,64,GOOD,DISCHARGING
1575914274133,0,1568000,2148000,600,600,520,372,313,-723,-822,3846000,3846000,315,64,GOOD,DISCHARGING
1575914274778,0,1568000,2148000,610,610,520,372,313,-723,-822,3846000,3846000,316,64,GOOD,DISCHARGING
1575914275394,0,1568000,2148000,620,620,520,372,313,-723,-822,3846000,3846000,316,64,GOOD,DISCHARGING
1575914275905,0,1568000,2148000,610,610,520,372,313,-723,-822,3846000,3846000,316,64,GOOD,DISCHARGING
1575914276504,0,1568000,2148000,610,610,520,372,313,-723,-822,3846000,3846000,316,64,GOOD,DISCHARGING
1575914277131,0,1568000,2148000,610,600,520,372,313,-723,-822,3846000,3846000,316,64,GOOD,DISCHARGING
1575914277736,0,1568000,2148000,600,600,520,372,313,-723,-822,3846000,3846000,316,64,GOOD,DISCHARGING
1575914278343,0,1568000,2148000,600,600,520,372,313,-723,-822,3846000,3846000,316,64,GOOD,DISCHARGING
1575914278968,0,1568000,2148000,640,640,520,372,313,-723,-822,3846000,3846000,316,64,GOOD,DISCHARGING
1575914279581,0,1568000,2148000,640,640,520,372,313,-723,-822,3846000,3846000,316,64,GOOD,DISCHARGING
1575914280164,0,1568000,2148000,620,620,520,372,313,-723,-822,3846000,3846000,316,64,GOOD,DISCHARGING
1575914280759,0,1568000,2148000,620,620,520,379,316,-1149,-843,3824000,3824000,316,63,GOOD,DISCHARGING
1575914281327,0,1568000,2148000,620,620,520,379,316,-1149,-843,3824000,3824000,316,63,GOOD,DISCHARGING
1575914281905,0,1568000,2148000,640,640,520,379,316,-1149,-843,3824000,3824000,316,63,GOOD,DISCHARGING
1575914282504,0,1568000,2148000,630,630,520,379,316,-1149,-843,3824000,3824000,316,63,GOOD,DISCHARGING
1575914283017,0,1568000,2148000,610,610,520,379,316,-1149,-843,3824000,3824000,316,63,GOOD,DISCHARGING
1575914283611,0,1568000,2148000,610,610,520,379,316,-1149,-843,3824000,3824000,316,63,GOOD,DISCHARGING
1575914284210,0,1568000,2148000,610,600,520,379,316,-1149,-843,3824000,3824000,317,63,GOOD,DISCHARGING
1575914284835,0,1568000,2148000,600,600,520,379,316,-1149,-843,3824000,3824000,316,63,GOOD,DISCHARGING
1575914285462,0,1568000,2148000,600,610,530,379,316,-1149,-843,3824000,3824000,317,63,GOOD,DISCHARGING
1575914286057,0,1568000,2148000,640,640,530,379,316,-1149,-843,3824000,3824000,316,63,GOOD,DISCHARGING
1575914286657,0,1568000,2148000,630,630,520,379,316,-1149,-843,3824000,3824000,317,63,GOOD,DISCHARGING
1575914287178,0,1568000,2148000,610,610,520,379,316,-1149,-843,3824000,3824000,317,63,GOOD,DISCHARGING
1575914287799,0,1568000,2148000,600,600,520,379,316,-1149,-843,3824000,3824000,317,63,GOOD,DISCHARGING
1575914288361,0,1568000,2148000,610,610,520,379,316,-1149,-843,3824000,3824000,317,63,GOOD,DISCHARGING
1575914288991,0,1568000,2148000,600,600,530,379,316,-1149,-843,3824000,3824000,317,63,GOOD,DISCHARGING
1575914289605,0,1568000,2148000,600,600,530,379,316,-1149,-843,3824000,3824000,317,63,GOOD,DISCHARGING
1575914290238,0,1568000,2148000,630,630,530,379,316,-1149,-843,3824000,3824000,317,63,GOOD,DISCHARGING
1575914290859,0,1568000,2148000,630,630,530,379,316,-1149,-843,3824000,3824000,317,63,GOOD,DISCHARGING
1575914291455,0,1568000,2148000,620,620,520,379,316,-1149,-843,3824000,3824000,317,63,GOOD,DISCHARGING
1575914292056,0,1568000,2148000,620,620,520,379,316,-1149,-843,3824000,3824000,317,63,GOOD,DISCHARGING
1575914292657,0,1568000,2148000,610,610,520,379,316,-1149,-843,3824000,3824000,317,63,GOOD,DISCHARGING
1575914293271,0,1568000,2148000,610,600,530,379,316,-1149,-843,3824000,3824000,317,63,GOOD,DISCHARGING
1575914293903,0,1568000,2148000,630,630,530,379,316,-1149,-843,3824000,3824000,317,63,GOOD,DISCHARGING
1575914294549,0,1568000,2148000,630,630,530,379,316,-1149,-843,3824000,3824000,317,63,GOOD,DISCHARGING
1575914295181,0,1568000,2148000,620,620,520,379,316,-1149,-843,3824000,3824000,317,63,GOOD,DISCHARGING
1575914295802,0,1568000,2148000,610,610,530,379,316,-1149,-843,3824000,3824000,317,63,GOOD,DISCHARGING
1575914296399,0,1568000,2148000,610,610,530,379,316,-1149,-843,3824000,3824000,317,63,GOOD,DISCHARGING
1575914297004,0,1568000,2148000,610,610,530,379,316,-1149,-843,3824000,3824000,318,63,GOOD,DISCHARGING
1575914297583,0,1568000,2148000,610,610,530,379,316,-1149,-843,3824000,3824000,318,63,GOOD,DISCHARGING
1575914298125,0,1568000,2148000,620,620,530,379,316,-1149,-843,3824000,3824000,318,63,GOOD,DISCHARGING
1575914298682,0,1568000,2148000,620,620,530,379,316,-1149,-843,3824000,3824000,318,63,GOOD,DISCHARGING
1575914299294,0,1568000,2148000,610,610,530,379,316,-1149,-843,3824000,3824000,318,63,GOOD,DISCHARGING
1575914299877,0,1568000,2148000,610,610,530,379,316,-1149,-843,3824000,3824000,318,63,GOOD,DISCHARGING
1575914300495,0,1568000,2148000,620,620,530,379,316,-1149,-843,3824000,3824000,318,63,GOOD,DISCHARGING
1575914301099,0,1568000,2148000,650,650,530,379,316,-1149,-843,3824000,3824000,318,63,GOOD,DISCHARGING
1575914301658,0,1568000,2148000,610,610,530,379,316,-1149,-843,3824000,3824000,318,63,GOOD,DISCHARGING
1575914302253,0,1568000,2148000,630,630,530,379,316,-1149,-843,3824000,3824000,318,63,GOOD,DISCHARGING
1575914302828,0,1568000,2148000,620,620,530,379,316,-1149,-843,3824000,3824000,318,63,GOOD,DISCHARGING
1575914303428,0,1568000,2148000,640,640,530,379,316,-1149,-843,3824000,3824000,318,63,GOOD,DISCHARGING
1575914304058,0,1568000,2148000,620,620,530,379,316,-1149,-843,3824000,3824000,319,63,GOOD,DISCHARGING
1575914304675,0,1568000,2148000,630,620,530,379,316,-1149,-843,3824000,3824000,318,63,GOOD,DISCHARGING
1575914305287,0,1568000,2148000,620,620,530,379,316,-1149,-843,3824000,3824000,318,63,GOOD,DISCHARGING
1575914305883,0,1568000,2148000,620,620,530,379,316,-1149,-843,3824000,3824000,319,63,GOOD,DISCHARGING
1575914306448,0,1568000,2148000,630,630,530,379,316,-1149,-843,3824000,3824000,319,63,GOOD,DISCHARGING
1575914307006,0,1568000,2148000,640,640,530,379,316,-1149,-843,3824000,3824000,319,63,GOOD,DISCHARGING
1575914307638,0,1568000,2148000,610,620,530,379,316,-1149,-843,3824000,3824000,319,63,GOOD,DISCHARGING
1575914308278,0,1568000,2148000,620,620,530,379,316,-1149,-843,3824000,3824000,319,63,GOOD,DISCHARGING
